﻿object={
	name="tree_pine_01_b_generator_1_0"
	clamp_to_water_level=no
	render_under_water=no
	generated_content=yes
	layer="tree_high_layer"
	pdxmesh="tree_pine_01_b_mesh"
	count=49
	transform="532.903503 0.000000 3066.312012 0.000000 0.250108 0.000000 0.968218 0.400000 0.400000 0.400000
560.215637 0.000000 3093.193359 0.000000 0.383933 0.000000 0.923361 0.400000 0.400000 0.400000
533.511902 0.000000 3071.604004 0.000000 0.211971 0.000000 -0.977276 0.400000 0.400000 0.400000
598.903198 0.000000 3102.681885 0.000000 0.563092 0.000000 0.826394 0.400000 0.400000 0.400000
305.727478 0.000000 3788.559814 0.000000 0.744654 0.000000 -0.667451 0.400000 0.400000 0.400000
311.340424 0.000000 3795.604492 0.000000 0.703335 0.000000 0.710859 0.400000 0.400000 0.400000
366.098633 0.000000 3805.364502 0.000000 0.639098 0.000000 0.769125 0.400000 0.400000 0.400000
350.894653 0.000000 3803.337402 0.000000 0.041899 0.000000 0.999122 0.400000 0.400000 0.400000
373.480347 0.000000 3805.301025 0.000000 0.803713 0.000000 0.595017 0.400000 0.400000 0.400000
372.412506 0.000000 3800.180664 0.000000 0.948293 0.000000 0.317396 0.400000 0.400000 0.400000
392.120056 0.000000 3804.402588 0.000000 0.859361 0.000000 -0.511369 0.400000 0.400000 0.400000
429.596436 0.000000 3827.533447 0.000000 0.627181 0.000000 -0.778873 0.400000 0.400000 0.400000
456.506470 0.000000 3824.946289 0.000000 0.975939 0.000000 0.218046 0.400000 0.400000 0.400000
452.856720 0.000000 3828.499023 0.000000 0.981025 0.000000 -0.193880 0.400000 0.400000 0.400000
234.961716 0.000000 3847.009033 0.000000 0.820807 0.000000 -0.571205 0.400000 0.400000 0.400000
237.865753 0.000000 3882.363037 0.000000 0.140717 0.000000 0.990050 0.400000 0.400000 0.400000
239.526520 0.000000 3840.490723 0.000000 0.993069 0.000000 0.117531 0.400000 0.400000 0.400000
229.403595 0.000000 3844.806641 0.000000 0.118974 0.000000 -0.992897 0.400000 0.400000 0.400000
297.510315 0.000000 3855.474609 0.000000 0.106429 0.000000 0.994320 0.400000 0.400000 0.400000
307.022827 0.000000 3857.791992 0.000000 0.542794 0.000000 -0.839866 0.400000 0.400000 0.400000
380.511963 0.000000 3899.783203 0.000000 0.431874 0.000000 -0.901934 0.400000 0.400000 0.400000
375.615143 0.000000 3896.812988 0.000000 0.719077 0.000000 -0.694930 0.400000 0.400000 0.400000
304.246857 0.000000 3924.990234 0.000000 0.153451 0.000000 -0.988156 0.400000 0.400000 0.400000
311.340424 0.000000 3923.573242 0.000000 0.674515 0.000000 -0.738261 0.400000 0.400000 0.400000
348.327942 0.000000 3910.711670 0.000000 0.588312 0.000000 0.808634 0.400000 0.400000 0.400000
328.127869 0.000000 3932.371338 0.000000 0.399567 0.000000 -0.916704 0.400000 0.400000 0.400000
328.522095 0.000000 3952.915039 0.000000 0.751227 0.000000 0.660044 0.400000 0.400000 0.400000
328.217834 0.000000 3946.539307 0.000000 0.908800 0.000000 -0.417232 0.400000 0.400000 0.400000
325.213684 0.000000 3941.079102 0.000000 0.992515 0.000000 0.122126 0.400000 0.400000 0.400000
381.608307 0.000000 3903.853516 0.000000 0.999362 0.000000 0.035716 0.400000 0.400000 0.400000
404.919098 0.000000 3898.108887 0.000000 0.940028 0.000000 0.341096 0.400000 0.400000 0.400000
440.593323 0.000000 3891.416748 0.000000 0.939372 0.000000 0.342899 0.400000 0.400000 0.400000
389.514679 0.000000 3897.618408 0.000000 0.150609 0.000000 -0.988593 0.400000 0.400000 0.400000
444.504150 0.000000 3899.783203 0.000000 0.273307 0.000000 -0.961927 0.400000 0.400000 0.400000
397.380768 0.000000 3895.510498 0.000000 0.131690 0.000000 -0.991291 0.400000 0.400000 0.400000
409.657623 0.000000 3894.854248 0.000000 0.274559 0.000000 -0.961570 0.400000 0.400000 0.400000
439.607330 0.000000 3896.812988 0.000000 0.165717 0.000000 -0.986173 0.400000 0.400000 0.400000
469.519714 0.000000 3839.416504 0.000000 0.993969 0.000000 0.109658 0.400000 0.400000 0.400000
456.506470 0.000000 3888.930664 0.000000 0.827339 0.000000 0.561703 0.400000 0.400000 0.400000
461.372955 0.000000 3895.510498 0.000000 0.823623 0.000000 0.567138 0.400000 0.400000 0.400000
476.717804 0.000000 3854.373291 0.000000 0.864176 0.000000 -0.503189 0.400000 0.400000 0.400000
478.644104 0.000000 3887.729736 0.000000 0.978793 0.000000 -0.204851 0.400000 0.400000 0.400000
464.317993 0.000000 3901.203857 0.000000 0.938876 0.000000 -0.344255 0.400000 0.400000 0.400000
439.006287 0.000000 3903.799072 0.000000 0.417873 0.000000 -0.908505 0.400000 0.400000 0.400000
395.334717 0.000000 3903.833740 0.000000 0.998650 0.000000 -0.051943 0.400000 0.400000 0.400000
426.938293 0.000000 3910.993408 0.000000 0.211507 0.000000 -0.977376 0.400000 0.400000 0.400000
419.448914 0.000000 3903.609375 0.000000 0.341693 0.000000 -0.939812 0.400000 0.400000 0.400000
476.312317 0.000000 3910.711670 0.000000 0.728599 0.000000 -0.684941 0.400000 0.400000 0.400000
459.326904 0.000000 3903.833740 0.000000 0.609552 0.000000 -0.792746 0.400000 0.400000 0.400000
"}
