@smCastleX = 0.27
@smCastleY = 0.23
@smLysX = 0.23
@smLysY = 0.26
@smCross = 0.22


e_cuineone = {
	pattern="pattern__solid_designer.dds"
	color1=rgb { 75 22 22 }
	color2=yellow
	color3=rgb { 75 22 22 }
	colored_emblem={
		color1=white
		texture="ce_double_tressure.dds"
		instance={
			scale={ 0.940000 0.940000 }
		}
	}

	colored_emblem={
		color1=rgb { 75 22 22 }
		color2=yellow
		texture="ce_border_shield.dds"
		instance={
			depth=2.010000
		}
	}

	colored_emblem={
		color1=yellow
		color2=purple
		color3=purple
		texture="ce_crancelin.dds"
		instance={
			position={ 0.600000 0.140000 }
			scale={ 0.510000 0.510000 }
			depth=3.010000
		}

		instance={
			position={ 0.500000 0.730000 }
			scale={ 0.510000 0.510000 }
			depth=4.010000
		}

		instance={
			position={ 0.580000 0.360000 }
			scale={ 0.500000 0.510000 }
			depth=5.010000
		}

		instance={
			scale={ 0.500000 0.500000 }
			depth=6.010000
		}
	}

	colored_emblem={
		color1=purple
		texture="ce_escutcheon.dds"
		instance={
			position={ 0.500000 0.490000 }
			depth=7.010000
		}
	}

	colored_emblem={
		color1=purple
		texture="ce_orle.dds"
		instance={
			position={ 0.500000 0.510000 }
			depth=1.010000
		}
	}
}

k_curiers = {
	pattern="pattern_shield_02.dds"
	color1=purple
	color2=yellow
	color3=red
	colored_emblem={
		color1=white
		color2=purple
		color3=purple
		texture="ce_diagonal_stripes_02_dual.dds"
		instance={
			depth=4.010000
		}
	}

	colored_emblem={
		color1=white
		color2=white
		color3=white
		texture="ce_boar_passant.dds"
		instance={
			position={ 0.500000 0.370000 }
			scale={ 0.440000 0.440000 }
			depth=2.010000
		}
	}

	colored_emblem={
		color1=yellow
		color2=grey
		texture="ce_escutcheon.dds"
		instance={
			depth=3.010000
		}
	}

	colored_emblem={
		color1=white
		color2=white
		color3=white
		texture="ce_boar_passant_02.dds"
		instance={
			position={ 0.500000 0.600000 }
			scale={ 0.380000 0.380000 }
			depth=1.010000
		}
	}

	colored_emblem={
		color1=white
		texture="ce_orle.dds"
		instance={
			position={ 0.500000 0.520000 }
		}
	}
}

d_rialles = {
	pattern="pattern_diagonal_split_02.dds"
	color1=green
	color2=purple
	color3=red
	colored_emblem={
		color1=blue_light
		color2=white
		texture="ce_waves_03.dds"
		instance={
			scale={ 0.960000 0.960000 }
			depth=1.010000
		}
	}

	colored_emblem={
		color1=yellow
		color2=green
		texture="ce_crown_head.dds"
		instance={
			position={ 0.690000 0.240000 }
			scale={ 0.520000 0.520000 }
		}
	}
}

c_corselier = {
	pattern="pattern_solid.dds"
	color1=blue
	color2=yellow
	color3=red
	colored_emblem={
		color1=yellow_light
		texture="ce_waves_04.dds"
		instance={
			scale={ 0.960000 0.960000 }
		}
	}
}

c_tes_taroil = {
	pattern="pattern_vertical_stripes_02.dds"
	color1=green_light
	color2=blue
	color3=black
	colored_emblem={
		color1=blue_light
		texture="ce_mena_pale.dds"
		instance={
			position={ 0.490000 0.500000 }
			scale={ 0.390000 1.000000 }
		}
	}
}

c_gralelles = {
	pattern="pattern_horizontal_split_02.dds"
	color1=green
	color2=yellow
	color3=blue
}

c_erastal = {
	pattern="pattern_vertical_split_jagged_01.dds"
	color1=purple
	color2=white
	color3=red
}


c_neuchele = {
	pattern="pattern_horizontal_split_02.dds"
	color1=white
	color2=green
	color3=blue
}


c_coraida = {
	pattern="pattern_barry_06.dds"
	color1=black
	color2=white
	color3=black
	colored_emblem={
		color1=white
		color2=black
		texture="ce_barruly_12.dds"
	}
}

c_ovroica = {
	pattern="pattern__solid_designer.dds"
	color1=red
	color2=yellow
	color3=green
	colored_emblem={
		color1=yellow
		texture="ce_double_tressure.dds"
		instance={
			scale={ 0.800000 0.800000 }
			depth=1.010000
		}
	}

	colored_emblem={
		color1=yellow
		texture="ce_crown_small.dds"
		instance={
			position={ 0.500000 0.480000 }
			scale={ 0.280000 0.280000 }
		}
	}

	colored_emblem={
		color1=white
		color2=red
		texture="ce_african_pattern_02.dds"
		instance={
			depth=3.010000
		}
	}

	colored_emblem={
		color1=white
		texture="ce_escutcheon.dds"
		instance={
			position={ 0.500000 0.500000 }
			scale={ 0.830000 0.890000 }
			depth=2.010000
		}
	}
}

c_locherne = {
	pattern="pattern_diagonal_split_02.dds"
	color1=green
	color2=white
	color3=red
}

d_bacerie = {
	pattern="pattern_waves_01.dds"
	color1=white
	color2=rgb { 60 51 102 }
	color3=blue
	colored_emblem={
		color1=white
		color2=rgb { 65 51 102 }
		texture="ce_doted_roundel_frame.dds"
		instance={
			position={ 0.500000 0.600000 }
			scale={ 0.570000 0.570000 }
			depth=2.010000
		}
	}

	colored_emblem={
		color1=rgb { 71 51 102 }
		texture="ce_circle.dds"
		instance={
			position={ 0.500000 0.590000 }
			scale={ 0.690000 0.690000 }
			depth=1.010000
		}
	}

	colored_emblem={
		color1=white
		color2=red
		texture="ce_annulet.dds"
		instance={
			position={ 0.500000 0.600000 }
			scale={ 0.750000 0.750000 }
		}
	}
}

c_bacerie = {
	pattern="pattern_waves_01.dds"
	color1=white
	color2=rgb { 60 51 102 }
	color3=blue
	colored_emblem={
		color1=white
		color2=rgb { 65 51 102 }
		texture="ce_doted_roundel_frame.dds"
		instance={
			position={ 0.500000 0.600000 }
			scale={ 0.570000 0.570000 }
			depth=2.010000
		}
	}

	colored_emblem={
		color1=rgb { 71 51 102 }
		texture="ce_circle.dds"
		instance={
			position={ 0.500000 0.590000 }
			scale={ 0.690000 0.690000 }
			depth=1.010000
		}
	}

	colored_emblem={
		color1=white
		color2=red
		texture="ce_annulet.dds"
		instance={
			position={ 0.500000 0.600000 }
			scale={ 0.750000 0.750000 }
		}
	}
}

c_nenele = {
	pattern="pattern_vertical_split_jagged_01.dds"
	color1=rgb { 69 36 149 }
	color2=yellow
	color3=green
	colored_emblem={
		color1=yellow
		color2=yellow
		color3=yellow
		texture="ce_griffin_rampant.dds"
		instance={
			position={ 0.690000 0.500000 }
			scale={ 0.600000 0.600000 }
		}
	}
}

c_pirotie = {
	pattern="pattern_vertical_stripes_02.dds"
	color1=green
	color2=white
	color3=green
	colored_emblem={
		color1=purple
		texture="ce_barrulets_2.dds"
		instance={
			rotation=90
		}
	}
}

c_reialise = {
	pattern="pattern__solid_designer.dds"
	color1=rgb { 34 69 102 }
	color2=yellow
	color3=blue
	colored_emblem={
		color1=yellow
		texture="ce_waves_04.dds"
		instance={
			position={ 0.500000 0.700000 }
			scale={ 0.930000 0.930000 }
			depth=1.010000
		}
	}

	colored_emblem={
		color1=yellow
		texture="ce_crown_random.dds"
		instance={
			position={ 0.500000 0.340000 }
			scale={ 0.640000 0.640000 }
		}
	}
}

c_trecei = {
	pattern="pattern_shield_01.dds"
	color1=white
	color2=rgb { 87 21 114 }
	color3=blue
	colored_emblem={
		color1=rgb { 73 21 114 }
		color2=red
		texture="ce_double_tressure.dds"
		instance={
			scale={ 0.840000 0.840000 }
			depth=1.010000
		}
	}

	colored_emblem={
		color1=white
		texture="ce_crossbow.dds"
		instance={
			scale={ 0.700000 0.700000 }
		}
	}
}

d_hirocalle = {
	pattern="pattern_solid.dds"
	color1=white
	color2=white
	color3=red
	colored_emblem={
		color1=blue
		texture="ce_block_01.dds"
		instance={
			position={ 0.500000 0.470000 }
			depth=1.010000
		}
	}

	colored_emblem={
		color1=white
		texture="ce_boathooks.dds"
		instance={
			scale={ 0.600000 0.600000 }
		}
	}
}

c_valeiral = {
	pattern="pattern_solid.dds"
	color1=white
	color2=white
	color3=red
	colored_emblem={
		color1=blue
		texture="ce_block_01.dds"
		instance={
			position={ 0.500000 0.470000 }
			depth=1.010000
		}
	}

	colored_emblem={
		color1=white
		texture="ce_boathooks.dds"
		instance={
			scale={ 0.600000 0.600000 }
		}
	}
}

c_urvallange = {
	pattern="pattern_solid.dds"
	color1=rgb { 46 53 61 }
	color2=white
	color3=blue
	colored_emblem={
		color1=grey
		color2=black
		color3=black
		texture="ce_greyhound_courant.dds"
		instance={
			position={ 0.500000 0.720000 }
			scale={ 0.850000 0.850000 }
		}

		instance={
			position={ 0.500000 0.470000 }
			scale={ 0.850000 0.850000 }
			depth=1.010000
		}

		instance={
			position={ 0.500000 0.220000 }
			scale={ 0.850000 0.850000 }
			depth=2.010000
		}
	}
}

c_seirntour = {
	pattern="pattern_vertical_stripes_02.dds"
	color1=blue_light
	color2=white
	color3=red
	colored_emblem={
		color1=purple
		color2=blue_light
		texture="ce_column_banner.dds"
		instance={
			scale={ 0.700000 0.700000 }
		}
	}
}

c_loiram = {
	pattern="pattern_checkers_12.dds"
	color1=white
	color2=rgb { 71 60 91 }
	color3=blue
}

c_gantiallon = {
	pattern="pattern__solid_designer.dds"
	color1=blue_light
	color2=yellow
	color3=black
	colored_emblem={
		color1=white
		texture="ce_chevron_02_jagged.dds"
	}

	colored_emblem={
		color1=white
		texture="ce_escutcheon.dds"
		instance={
			position={ 0.500000 0.630000 }
			scale={ 0.660000 -1.000000 }
			depth=1.010000
		}
	}
}

d_tesunier = {
	pattern="pattern_waves_01.dds"
	color1=blue_light
	color2=grey
	color3=blue
	colored_emblem={
		color1=blue_light
		color2=blue
		texture="ce_waves_02.dds"
		instance={
			depth=3.010000
		}
	}

	colored_emblem={
		color1=blue_light
		color2=white
		texture="ce_escutcheon.dds"
		instance={
			scale={ 0.700000 0.700000 }
			depth=2.010000
		}
	}

	colored_emblem={
		color1=yellow
		color2=blue_light
		texture="ce_waves_02.dds"
		instance={
			position={ 0.500000 0.490000 }
			scale={ 0.380000 0.380000 }
			depth=1.010000
		}
	}

	colored_emblem={
		color1=yellow
		color2=white
		texture="ce_orle.dds"
		instance={
			position={ 0.500000 0.510000 }
			scale={ 0.840000 0.840000 }
		}
	}
}

c_suniora = {
	pattern="pattern_waves_01.dds"
	color1=blue_light
	color2=grey
	color3=blue
	colored_emblem={
		color1=white
		color2=blue_light
		texture="ce_waves_02.dds"
		instance={
			position={ 0.500000 0.490000 }
			scale={ 0.380000 0.380000 }
			depth=1.010000
		}
	}

	colored_emblem={
		color1=white
		color2=white
		texture="ce_orle.dds"
		instance={
			position={ 0.500000 0.510000 }
			scale={ 0.840000 0.840000 }
	}

	}

	colored_emblem={
		color1=blue_light
		color2=white
		texture="ce_escutcheon.dds"
		instance={
			scale={ 0.700000 0.700000 }
			depth=2.010000
		}
	}

	colored_emblem={
		color1=blue
		color2=blue
		texture="ce_waves_02.dds"
		instance={
			depth=3.010000
		}
	}
}

c_noireute = {
	pattern="pattern_solid.dds"
	color1=white
	color2=yellow
	color3=blue
	colored_emblem={
		color1=black
		texture="ce_shrub.dds"
		instance={
			scale={ 0.700000 0.700000 }
		}
	}
}

c_vouterm = {
	pattern="pattern__solid_designer.dds"
	color1=blue_light
	color2=white
	color3=red
	colored_emblem={
		color1=white
		texture="ce_castle_random.dds"
		instance={
			position={ 0.720000 0.500000 }
			scale={ 0.640000 0.640000 }
		}
	}

	colored_emblem={
		color1=white
		color2=blue
		texture="ce_waves_02.dds"
		instance={
			depth=1.010000
			rotation=90
		}
	}
}

d_gantouret = {
	pattern="pattern_solid.dds"
	color1=grey
	color2=white
	color3=blue
	colored_emblem={
		color1=rgb { 73 100 87 }
		color2=white
		texture="ce_border_shield_engrailed_01.dds"
		instance={
			depth=3.010000
		}
	}

	colored_emblem={
		color1=rgb { 67 96 70 }
		texture="ce_yggdrasil.dds"
		instance={
			position={ 0.500000 0.470000 }
			scale={ 0.650000 0.650000 }
		}
	}

	colored_emblem={
		color1=white
		color2=rgb { 147 147 147 }
		texture="ce_spirals_03_rotated.dds"
		instance={
			depth=4.010000
			rotation=30
		}
	}

	colored_emblem={
		color1=white
		texture="ce_circle_mask.dds"
		instance={
			position={ 0.500000 0.490000 }
			scale={ 0.470000 0.470000 }
			depth=2.010000
		}
	}

	colored_emblem={
		color1=rgb { 70 92 73 }
		color2=white
		texture="ce_frame_circle_urnes_pitney.dds"
		instance={
			position={ 0.500000 0.470000 }
			scale={ 0.650000 0.650000 }
			depth=1.010000
		}
	}
}

c_comiligas = {
	pattern="pattern_solid.dds"
	color1=grey
	color2=white
	color3=blue
	colored_emblem={
		color1=white
		color2=white
		texture="ce_spirals_03_rotated.dds"
		instance={
			depth=4.010000
			rotation=30
		}
	}

	colored_emblem={
		color1=brown
		color2=white
		texture="ce_border_shield_engrailed_01.dds"
		instance={
			depth=3.010000
		}
	}

	colored_emblem={
		color1=white
		texture="ce_circle_mask.dds"
		instance={
			position={ 0.500000 0.490000 }
			scale={ 0.470000 0.470000 }
			depth=2.010000
		}
	}

	colored_emblem={
		color1=white
		color2=white
		texture="ce_frame_circle_urnes_pitney.dds"
		instance={
			position={ 0.500000 0.470000 }
			scale={ 0.650000 0.650000 }
			depth=1.010000
		}
	}

	colored_emblem={
		color1=brown
		texture="ce_yggdrasil.dds"
		instance={
			position={ 0.500000 0.470000 }
			scale={ 0.650000 0.650000 }
		}

	}
}

c_coimisum = {
	pattern="pattern_solid.dds"
	color1=grey
	color2=yellow
	color3=black
	colored_emblem={
		color1=green_light
		color2=grey
		texture="ce_african_pattern_undy.dds"
		instance={
			scale={ 0.990000 0.990000 }
		}
	}
}

c_komeste = {
	pattern="pattern_solid.dds"
	color1=rgb { 69 69 69 }
	color2=yellow
	color3=blue
	colored_emblem={
		color1=white
		texture="ce_hand.dds"
		instance={
			scale={ 0.810000 0.810000 }
		}
	}
}

c_manteros = {
	pattern="pattern_solid.dds"
	color1=rgb { 68 94 71 }
	color2=yellow
	color3=red
	colored_emblem={
		color1=white
		texture="ce_circle_mask.dds"
		instance={
			scale={ 0.460000 0.460000 }
			depth=2.010000
		}
	}

	colored_emblem={
		color1=rgb { 68 94 71 }
		texture="ce_castle_random.dds"
		instance={
			position={ 0.500000 0.520000 }
			scale={ 0.450000 0.450000 }
		}
	}

	colored_emblem={
		color1=white
		texture="ce_runic_circle_frame.dds"
		instance={
			scale={ 0.700000 0.700000 }
			depth=1.010000
		}
	}
}

c_omesoire = {
	pattern="pattern_solid.dds"
	color1=rgb { 95 114 75 }
	color2=white
	color3=blue
	colored_emblem={
		color1=yellow_light
		color2=green_light
		texture="ce_portcullis.dds"
		instance={
			position={ 0.500000 0.630000 }
			scale={ 0.610000 0.610000 }
			depth=1.010000
		}
	}

	colored_emblem={
		color1=yellow_light
		color2=rgb { 95 114 75 }
		texture="ce_label_castles.dds"
	}
}

c_palestoi = {
	pattern="pattern_tricolor_bend_01.dds"
	color1=rgb { 76 116 92 }
	color2=white
	color3=rgb { 76 116 92 }
	colored_emblem={
		color1=rgb { 76 116 92 }
		texture="ce_bendlet.dds"
	}
}

c_relois = {
	pattern="pattern_checkers_02.dds"
	color1=rgb { 52 88 48 }
	color2=yellow
	color3=black
	colored_emblem={
		color1=rgb { 52 88 48 }
		color2=rgb { 52 88 48 }
		texture="ce_tree.dds"
		instance={
			position={ 0.270000 0.260000 }
			scale={ 0.510000 0.510000 }
		}
	}

	colored_emblem={
		color1=rgb { 52 88 48 }
		color2=rgb { 52 88 48 }
		texture="ce_tree.dds"
		instance={
			position={ 0.750000 0.750000 }
			scale={ 0.510000 0.510000 }
			depth=1.010000
		}
	}
}

c_taigois = {
	pattern="pattern_solid.dds"
	color1=green_light
	color2=yellow
	color3=black
	colored_emblem={
		color1=green_light
		color2=red
		texture="ce_sabre.dds"
		instance={
			scale={ 0.700000 0.700000 }
		}
	}

	colored_emblem={
		color1=yellow
		texture="ce_block_03.dds"
		instance={
			depth=1.010000
		}
	}
}

c_taseves = {
	pattern="pattern_horizontal_split_01.dds"
	color1=white
	color2=rgb { 106 126 102 }
	color3=black
}

c_tornothe = {
	pattern="pattern_waves_01.dds"
	color1=rgb { 65 81 66 }
	color2=rgb { 89 12 1 }
	color3=black
}

c_trogule = {
	pattern="pattern_solid.dds"
	color1=rgb { 31 52 33 }
	color2=yellow
	color3=red
}

c_vrothego = {
	pattern="pattern_solid.dds"
	color1=yellow
	color2=yellow
	color3=black
	colored_emblem={
		color1=rgb { 85 104 80 }
		color2=rgb { 85 104 80 }
		texture="ce_tree.dds"
		instance={
			position={ 1.000000 1.000000 }
			scale={ 0.200000 0.200000 }
		}

		instance={
			position={ 0.800000 1.000000 }
			scale={ 0.200000 0.200000 }
			depth=1.010000
		}

		instance={
			position={ 0.600000 1.000000 }
			scale={ 0.200000 0.200000 }
			depth=2.010000
		}

		instance={
			position={ 0.400000 1.000000 }
			scale={ 0.200000 0.200000 }
			depth=3.010000
		}

		instance={
			position={ 0.200000 1.000000 }
			scale={ 0.200000 0.200000 }
			depth=4.010000
		}

		instance={
			position={ 0.000000 1.000000 }
			scale={ 0.200000 0.200000 }
			depth=5.010000
		}

		instance={
			position={ 0.900000 0.800000 }
			scale={ 0.200000 0.200000 }
			depth=6.010000
		}

		instance={
			position={ 0.700000 0.800000 }
			scale={ 0.200000 0.200000 }
			depth=7.010000
		}

		instance={
			position={ 0.500000 0.800000 }
			scale={ 0.200000 0.200000 }
			depth=8.010000
		}

		instance={
			position={ 0.300000 0.800000 }
			scale={ 0.200000 0.200000 }
			depth=9.010000
		}

		instance={
			position={ 0.100000 0.800000 }
			scale={ 0.200000 0.200000 }
			depth=10.010000
		}

		instance={
			position={ 1.000000 0.600000 }
			scale={ 0.200000 0.200000 }
			depth=11.010000
		}

		instance={
			position={ 0.800000 0.600000 }
			scale={ 0.200000 0.200000 }
			depth=12.010000
		}

		instance={
			position={ 0.600000 0.600000 }
			scale={ 0.200000 0.200000 }
			depth=13.010000
		}

		instance={
			position={ 0.400000 0.600000 }
			scale={ 0.200000 0.200000 }
			depth=14.010000
		}

		instance={
			position={ 0.200000 0.600000 }
			scale={ 0.200000 0.200000 }
			depth=15.010000
		}

		instance={
			position={ 0.000000 0.600000 }
			scale={ 0.200000 0.200000 }
			depth=16.010000
		}

		instance={
			position={ 0.900000 0.400000 }
			scale={ 0.200000 0.200000 }
			depth=17.010000
		}

		instance={
			position={ 0.700000 0.400000 }
			scale={ 0.200000 0.200000 }
			depth=18.010000
		}

		instance={
			position={ 0.500000 0.400000 }
			scale={ 0.200000 0.200000 }
			depth=19.010000
		}

		instance={
			position={ 0.300000 0.400000 }
			scale={ 0.200000 0.200000 }
			depth=20.010000
		}

		instance={
			position={ 0.100000 0.400000 }
			scale={ 0.200000 0.200000 }
			depth=21.010000
		}

		instance={
			position={ 1.000000 0.200000 }
			scale={ 0.200000 0.200000 }
			depth=22.010000
		}

		instance={
			position={ 0.800000 0.200000 }
			scale={ 0.200000 0.200000 }
			depth=23.010000
		}

		instance={
			position={ 0.600000 0.200000 }
			scale={ 0.200000 0.200000 }
			depth=24.010000
		}

		instance={
			position={ 0.400000 0.200000 }
			scale={ 0.200000 0.200000 }
			depth=25.010000
		}

		instance={
			position={ 0.200000 0.200000 }
			scale={ 0.200000 0.200000 }
			depth=26.010000
		}

		instance={
			position={ 0.000000 0.200000 }
			scale={ 0.200000 0.200000 }
			depth=27.010000
		}

		instance={
			position={ 0.900000 0.000000 }
			scale={ 0.200000 0.200000 }
			depth=28.010000
		}

		instance={
			position={ 0.700000 0.000000 }
			scale={ 0.200000 0.200000 }
			depth=29.010000
		}

		instance={
			position={ 0.500000 0.000000 }
			scale={ 0.200000 0.200000 }
			depth=30.010000
		}

		instance={
			position={ 0.300000 0.000000 }
			scale={ 0.200000 0.200000 }
			depth=31.010000
		}

		instance={
			position={ 0.100000 0.000000 }
			scale={ 0.200000 0.200000 }
			depth=32.010002
		}
	}
}

d_masiaor = {
	pattern="pattern_tricolor_horizontal_01.dds"
	color1=white
	color2=white
	color3=yellow_light
	colored_emblem={
		color1=rgb { 107 58 203 }
		color2=yellow_light
		texture="ce_athyllarom.dds"
		instance={
			position={ 0.500000 0.330000 }
			scale={ 0.510000 0.510000 }
			depth=1.010000
		}

	}

	colored_emblem={
		color1=yellow_light
		texture="ce_anchor.dds"
		instance={
			position={ 0.500000 0.350000 }
			scale={ 0.390000 0.390000 }
		}
	}

	colored_emblem={
		color1=rgb { 107 58 203 }
		color2=rgb { 139 46 224 }
		color3=white
		texture="ce_pales_undy_04.dds"
		instance={
			position={ 0.500000 0.940000 }
			depth=2.010000
			rotation=90
		}
	}
}

c_masiaor = {
	pattern="pattern_tricolor_horizontal_01.dds"
	color1=white
	color2=white
	color3=yellow_light
	colored_emblem={
		color1=rgb { 107 58 203 }
		color2=yellow_light
		texture="ce_athyllarom.dds"
		instance={
			position={ 0.500000 0.330000 }
			scale={ 0.510000 0.510000 }
			depth=1.010000
		}

	}

	colored_emblem={
		color1=yellow_light
		texture="ce_anchor.dds"
		instance={
			position={ 0.500000 0.350000 }
			scale={ 0.390000 0.390000 }
		}
	}

	colored_emblem={
		color1=rgb { 107 58 203 }
		color2=rgb { 139 46 224 }
		color3=white
		texture="ce_pales_undy_04.dds"
		instance={
			position={ 0.500000 0.940000 }
			depth=2.010000
			rotation=90
		}
	}
}

c_aretaios = {
	pattern="pattern_ttt.dds"
	color1=white
	color2=rgb { 62 0 131 }
	color3=blue
	colored_emblem={
		color1=rgb { 62 0 131 }
		texture="ce_tower.dds"
		instance={
			position={ 0.500000 0.650000 }
			scale={ 0.640000 0.640000 }
		}
	}
}

c_trataisia = {
	pattern="pattern_solid.dds"
	color1=rgb { 70 26 89 }
	color2=white
	color3=black
	colored_emblem={
		color1=white
		color2=white
		texture="ce_sword_simple.dds"
		instance={
			position={ 0.510000 0.470000 }
			scale={ 0.900000 0.900000 }
			rotation=140
		}
	}

	colored_emblem={
		color1=purple
		color2=white
		texture="ce_bend_potenty.dds"
		instance={
			position={ 0.500000 0.460000 }
			depth=1.010000
			rotation=5
		}
	}
}

c_migora = {
	pattern="pattern_checkers_diagonal_01.dds"
	color1=white
	color2=purple
	color3=blue
}

c_anatoine = {
	pattern="pattern_waves_01.dds"
	color1=rgb { 56 30 76 }
	color2=white
	color3=red
	colored_emblem={
		color1=yellow
		texture="ce_circle_mask.dds"
		instance={
			scale={ 0.500000 0.500000 }
			depth=3.010000
		}
	}

	colored_emblem={
		color1=white
		color2=rgb { 56 30 76 }
		texture="ce_diagonal_stripe_02_striped.dds"
		instance={
			scale={ -0.350000 0.350000 }
			depth=1.010000
		}
	}

	colored_emblem={
		color1=white
		color2=rgb { 56 30 76 }
		texture="ce_diagonal_stripe_02_striped.dds"
		instance={
			scale={ 0.370000 0.370000 }
			depth=2.010000
		}
	}

	colored_emblem={
		color1=rgb { 56 30 76 }
		color2=white
		texture="ce_frame_circle_borre_single.dds"
		instance={
			scale={ 0.700000 0.700000 }
		}
	}
}

d_pitrase = {
	pattern="pattern_checkers_02.dds"
	color1=white
	color2=rgb { 52 35 106 }
	color3=black
	colored_emblem={
		color1=rgb { 58 48 133 }
		texture="ce_circles_01.dds"
		instance={
			position={ 0.250000 0.750000 }
			scale={ 0.500000 0.500000 }
		}
	}

	colored_emblem={
		color1=white
		texture="ce_circles_01.dds"
		instance={
			position={ 0.750000 0.750000 }
			scale={ 0.500000 0.500000 }
			depth=2.010000
		}

		instance={
			position={ 0.250000 0.250000 }
			scale={ 0.500000 0.500000 }
			depth=3.010000
		}
	}

	colored_emblem={
		color1=rgb { 52 35 106 }
		texture="ce_circles_01.dds"
		instance={
			position={ 0.750000 0.250000 }
			scale={ 0.500000 0.500000 }
			depth=1.010000
		}
	}
}

c_maccavo = {
	pattern="pattern_checkers_02.dds"
	color1=white
	color2=rgb { 52 35 106 }
	color3=black
	colored_emblem={
		color1=white
		texture="ce_circles_01.dds"
		instance={
			position={ 0.750000 0.750000 }
			scale={ 0.500000 0.500000 }
		}

		instance={
			position={ 0.250000 0.250000 }
			scale={ 0.500000 0.500000 }
			depth=1.010000
		}
	}
}

c_penchos = {
	pattern="pattern_vertical_stripes_02.dds"
	color1=blue
	color2=white
	color3=blue
	colored_emblem={
		color1=blue
		texture="ce_block_04.dds"
		instance={
			position={ 0.500000 0.760000 }
			scale={ 0.650000 0.650000 }
		}

		instance={
			position={ 0.500000 0.630000 }
			scale={ 0.650000 0.650000 }
			depth=1.010000
		}

		instance={
			scale={ 0.650000 0.650000 }
			depth=2.010000
		}

		instance={
			position={ 0.500000 0.360000 }
			scale={ 0.650000 0.650000 }
			depth=3.010000
		}

		instance={
			position={ 0.500000 0.230000 }
			scale={ 0.650000 0.650000 }
			depth=4.010000
		}
	}
}

c_moslea = {
	pattern="pattern_solid.dds"
	color1=rgb { 0 49 31 }
	color2=white
	color3=blue
	colored_emblem={
		color1=white
		color2=rgb { 0 49 31 }
		texture="ce_waves_02.dds"
		instance={
			scale={ 1.000000 -1.000000 }
		}

	}
}

c_reote = {
	pattern="pattern_solid.dds"
	color1=yellow
	color2=yellow
	color3=blue
	colored_emblem={
		color1=blue
		texture="ce_escallop_vannet.dds"
		instance={
			scale={ 0.600000 0.600000 }
		}
	}

	colored_emblem={
		color1=blue
		color2=yellow
		texture="ce_waves_02.dds"
		instance={
			position={ 0.500000 0.210000 }
			scale={ 1.000000 -1.000000 }
			depth=1.010000
		}

		instance={
			position={ 0.500000 0.740000 }
			depth=2.010000
		}
	}
}

d_visaire = {
	pattern="pattern_vertical_stripes_01.dds"
	color1=rgb { 89 29 130 }
	color2=white
	color3=blue
	colored_emblem={
		color1=yellow
		texture="ce_double_tressure.dds"
	}

	colored_emblem={
		color1=blue_light
		color2=white
		texture="ce_border_shield_compony.dds"
		instance={
			depth=2.010000
		}
	}

	colored_emblem={
		color1=rgb { 89 29 130 }
		texture="ce_orle.dds"
		instance={
			depth=1.010000
		}
	}
}

c_serota = {
	pattern="pattern_checkers_diagonal_01.dds"
	color1=rgb { 81 27 141 }
	color2=white
	color3=black
	colored_emblem={
		color1=rgb { 81 27 141 }
		texture="ce_ordinary_pile.dds"
	}

	colored_emblem={
		color1=rgb { 81 27 141 }
		texture="ce_ordinary_pile_02_inverted.dds"
		instance={
			depth=1.010000
		}
	}

	colored_emblem={
		color1=white
		texture="ce_ordinary_pile_02_inverted.dds"
		instance={
			depth=3.010000
			rotation=90
		}

		instance={
			depth=4.010000
			rotation=314
		}
	}

	colored_emblem={
		color1=rgb { 81 27 141 }
		color2=rgb { 81 27 141 }
		texture="ce_pales_undy_04.dds"
		instance={
			depth=2.010000
			rotation=91
		}
	}
}

c_tethere = {
	pattern="pattern_horizontal_stripes_01.dds"
	color1=rgb { 85 39 107 }
	color2=rgb { 146 110 60 }
	color3=red
	colored_emblem={
		color1=blue
		color2=rgb { 146 135 25 }
		texture="ce_bend_checky.dds"
		instance={
			rotation=134
		}
	}
}

c_poisale = {
	pattern="pattern_solid.dds"
	color1=rgb { 109 84 129 }
	color2=white
	color3=red
	colored_emblem={
		color1=blue_light
		texture="ce_annulet.dds"
		instance={
			scale={ 0.720000 0.720000 }
			depth=1.010000
		}
	}

	colored_emblem={
		color1=blue
		texture="ce_waves_04.dds"
		instance={
			position={ 0.500000 0.430000 }
			scale={ 1.000000 -1.000000 }
			depth=2.010000
		}

		instance={
			position={ 0.500000 0.570000 }
			depth=3.010000
		}
	}

	colored_emblem={
		color1=blue
		texture="ce_circle_mask.dds"
		instance={
			position={ 0.500000 0.500000 }
			scale={ 0.360000 0.360000 }
		}
	}

	colored_emblem={
		color1=blue_light
		texture="ce_mena_fess.dds"
		instance={
			scale={ 1.000000 0.760000 }
			depth=4.010000
		}
	}
}

c_linpier = {
	pattern="pattern__solid_designer.dds"
	color1=yellow
	color2=rgb { 86 67 133 }
	color3=red
	colored_emblem={
		color1=rgb { 91 63 125 }
		texture="ce_chevron_02_jagged.dds"
	}

	colored_emblem={
		color1=grey
		texture="ce_block_02.dds"
		instance={
			position={ 0.500000 0.990000 }
			depth=1.010000
			rotation=132
		}

	}
}

d_adoxega = {
	pattern="pattern_solid.dds"
	color1=rgb { 127 14 41 }
	color2=white
	color3=blue
	colored_emblem={
		color1=white
		color2=yellow_light
		texture="ce_crown_random.dds"
		instance={
			position={ 0.300000 0.500000 }
			scale={ 0.480000 0.480000 }
		}
	}

	colored_emblem={
		color1=white
		color2=rgb { 127 14 41 }
		color3=rgb { 127 14 41 }
		texture="ce_bendy_06_dimidiated.dds"
		instance={
			depth=2.010000
		}
	}

	colored_emblem={
		color1=white
		color2=white
		texture="ce_sword_simple.dds"
		instance={
			position={ 0.300000 0.490000 }
			scale={ 0.670000 -0.670000 }
			depth=1.010000
		}
	}
}

c_malceron = {
	pattern="pattern_solid.dds"
	color1=rgb { 127 14 41 }
	color2=white
	color3=blue
	colored_emblem={
		color1=rgb { 127 14 41 }
		texture="ce_crown_random.dds"
		instance={
			position={ 0.300000 0.770000 }
			scale={ 0.480000 0.480000 }
			depth=3.010000
		}

	}

	colored_emblem={
		color1=white
		color2=rgb { 127 14 41 }
		color3=rgb { 127 14 41 }
		texture="ce_pattern_vertical_split_01.dds"
		instance={
			depth=6.010000
		}
	}

	colored_emblem={
		color1=rgb { 127 14 41 }
		color2=yellow_light
		texture="ce_crown_random.dds"
		instance={
			position={ 0.300000 0.500000 }
			scale={ 0.480000 0.480000 }
			depth=4.010000
		}
	}

	colored_emblem={
		color1=rgb { 127 14 41 }
		color2=white
		texture="ce_crown_random.dds"
		instance={
			position={ 0.300000 0.210000 }
			scale={ 0.480000 0.480000 }
			depth=5.010000
		}
	}

	colored_emblem={
		color1=white
		texture="ce_crown_random.dds"
		instance={
			position={ 0.700000 0.770000 }
			scale={ 0.460000 0.460000 }
		}

		instance={
			position={ 0.700000 0.210000 }
			scale={ 0.480000 0.480000 }
			depth=1.010000
		}

		instance={
			position={ 0.700000 0.500000 }
			scale={ 0.480000 0.480000 }
			depth=2.010000
		}
	}
}

c_avarause = {
	pattern="pattern__solid_designer.dds"
	color1=blue
	color2=blue
	color3=black
	colored_emblem={
		color1=rgb { 112 21 49 }
		color2=blue
		texture="ce_diagonal_stripes_01.dds"
		instance={
			position={ 0.500000 0.780000 }
			scale={ 0.950000 0.950000 }
		}
	}

	colored_emblem={
		color1=rgb { 112 21 49 }
		texture="ce_label_05.dds"
		instance={
			position={ 0.500000 0.430000 }
			depth=1.010000
		}

	}
}

c_talgause = {
	pattern="pattern_solid.dds"
	color1=rgb { 114 21 38 }
	color2=white
	color3=red
	colored_emblem={
		color1=white
		texture="ce_block_03.dds"
		instance={
			position={ 0.500000 0.850000 }
			rotation=90
		}

		instance={
			position={ 0.500000 0.360000 }
			depth=1.010000
		}
	}
}

c_croperae = {
	pattern="pattern_solid.dds"
	color1=white
	color2=white
	color3=blue
	colored_emblem={
		color1=rgb { 56 0 11 }
		color2=white
		texture="ce_tower_and_wall.dds"
		instance={
			scale={ 0.590000 0.590000 }
		}
	}

	colored_emblem={
		color1=white
		color2=rgb { 56 0 11 }
		texture="ce_border_circle_fimbriated.dds"
		instance={
			scale={ 0.760000 0.760000 }
			depth=1.010000
		}
	}
}

d_arliourda = {
	pattern="pattern_checkers_02.dds"
	color1=purple
	color2=yellow
	color3=blue
	colored_emblem={
		color1=yellow
		color2=yellow
		color3=yellow
		texture="ce_boar_passant.dds"
		instance={
			position={ 0.250000 0.750000 }
			scale={ 0.500000 0.500000 }
		}

		instance={
			position={ 0.750000 0.250000 }
			scale={ 0.500000 0.500000 }
			depth=1.010000
		}
	}

	colored_emblem={
		color1=purple
		color3=yellow
		texture="ce_castle_random.dds"
		instance={
			position={ 0.750000 0.750000 }
			scale={ 0.500000 0.500000 }
			depth=2.010000
		}
	}

	colored_emblem={
		color1=purple
		texture="ce_castle_random.dds"
		instance={
			position={ 0.250000 0.250000 }
			scale={ 0.500000 0.500000 }
			depth=3.010000
		}
	}
}

c_vesperale = {
	pattern="pattern_cross_02.dds"
	color1=rgb { 62 31 50 }
	color2=yellow
	color3=white
	colored_emblem={
		color1=yellow
		texture="ce_cross_voided.dds"
	}
}

c_vastelle = {
	pattern="pattern_vertical_split_jagged_01.dds"
	color1=purple
	color2=white
	color3=green
	colored_emblem={
		color1=white
		color2=yellow
		color3=yellow
		texture="ce_hand.dds"
		instance={
			position={ 0.690000 0.500000 }
			scale={ 0.600000 0.600000 }
		}
	}
}

c_curoau = {
	pattern="pattern_waves_01.dds"
	color1=blue_light
	color2=red
	color3=green
	colored_emblem={
		color1=red
		texture="ce_pales_undy_04.dds"
		instance={
			scale={ 0.700000 1.000000 }
		}
	}
}

c_vousere = {
	pattern="pattern_solid.dds"
	color1=blue_light
	color2=white
	color3=black
	colored_emblem={
		color1=blue
		color2=red
		texture="ce_waves_03.dds"
		instance={
			position={ 0.530000 0.570000 }
			scale={ -1.000000 -1.000000 }
			depth=1.010000
			rotation=134
		}

		instance={
			position={ 0.500000 0.830000 }
			depth=2.010000
			rotation=135
		}
	}

	colored_emblem={
		color1=red
		color2=blue_light
		texture="ce_tower_and_wall.dds"
		instance={
			position={ 0.500000 0.250000 }
			scale={ 0.500000 0.500000 }
		}
	}
}

c_renshe = {
	pattern="pattern_solid.dds"
	color1=purple
	color2=white
	colored_emblem={
		color1=white
		color2=purple
		texture="ce_pattern_vertical_split_01.dds"
	}
}

c_melleurn = {
	pattern="pattern_solid.dds"
	color1=rgb { 83 13 23 }
	color2=yellow
	color3=black
	colored_emblem={
		color1=white
		texture="ce_ordinary_pily_vertical_04.dds"
		instance={
			position={ 0.500000 0.500000 }
		}
	}

	colored_emblem={
		color1=rgb { 83 13 23 }
		texture="ce_chief_indented_alpha.dds"
		instance={
			position={ 0.500000 0.520000 }
			depth=1.010000
		}
	}
}

c_erilois = {
	pattern="pattern_quarter.dds"
	color1=rgb { 114 21 40 }
	color2=white
	color3=black
	colored_emblem={
		color1=rgb { 114 21 40 }
		texture="ce_crown_random.dds"
		instance={
			position={ 0.260000 0.280000 }
			scale={ 0.420000 0.420000 }
		}
	}
}

k_vlouciel = {
	pattern="pattern__solid_designer.dds"
	color1=rgb { 26 102 102 }
	color2=white
	color3=red
	colored_emblem={
		color1=white
		texture="ce_waves_04.dds"
		instance={
			position={ 0.500000 0.850000 }
			depth=5.010000
		}

		instance={
			position={ 0.500000 0.150000 }
			depth=6.010000
		}

		instance={
			position={ 0.500000 0.730000 }
			depth=7.010000
		}

		instance={
			depth=8.010000
		}

		instance={
			position={ 0.500000 0.620000 }
			depth=9.010000
		}

		instance={
			position={ 0.500000 0.270000 }
			depth=10.010000
		}

		instance={
			position={ 0.500000 0.380000 }
			depth=11.010000
		}
	}

	colored_emblem={
		color1=rgb { 29 149 95 }
		texture="ce_demaroile.dds"
		instance={
			scale={ 0.450000 0.450000 }
			depth=2.010000
		}
	}

	colored_emblem={
		color1=white
		texture="ce_circle_mask.dds"
		instance={
			scale={ 0.590000 0.590000 }
			depth=4.010000
		}
	}

	colored_emblem={
		color1=rgb { 26 102 102 }
		texture="ce_mena_fess.dds"
		instance={
			position={ 0.500000 0.950000 }
		}

		instance={
			position={ 0.500000 0.050000 }
			depth=1.010000
		}
	}

	colored_emblem={
		color1=rgb { 26 102 102 }
		texture="ce_pagan_circle_frame.dds"
		instance={
			scale={ 0.740000 0.740000 }
			depth=3.010000
		}
	}
}

d_droinas = {
	pattern="pattern_vertical_split_01.dds"
	color1=rgb { 19 102 100 }
	color2=blue
	color3=blue
	colored_emblem={
		color1=rgb { 171 130 68 }
		texture="ce_demaroile.dds"
		instance={
			position={ 0.500000 0.500000 }
			scale={ 0.570000 0.570000 }
		}
	}

	colored_emblem={
		color1=white
		texture="ce_border_circle.dds"
		instance={
			scale={ 0.990000 0.990000 }
			depth=2.010000
		}
	}

	colored_emblem={
		color1=white
		color2=yellow
		texture="ce_border_circle_fimbriated.dds"
		instance={
			scale={ 0.820000 0.820000 }
			depth=1.010000
		}
	}
}

c_lusaime = {
	pattern="pattern_waves_01.dds"
	color1=rgb { 59 132 140 }
	color2=rgb { 99 22 12 }
	color3=blue
	colored_emblem={
		color1=rgb { 141 47 34 }
		texture="ce_pales_undy_04.dds"
		instance={
			position={ 0.500000 0.910000 }
			depth=1.010000
			rotation=90
		}
	}

	colored_emblem={
		color1=white
		texture="ce_crown_random.dds"
		instance={
			position={ 0.500000 0.280000 }
			scale={ 0.590000 0.590000 }
		}

	}
}

c_taurien = {
	pattern="pattern_vertical_stripes_02.dds"
	color1=rgb { 30 76 57 }
	color2=yellow
	color3=blue
	colored_emblem={
		color1=red
		texture="ce_bend_embattled.dds"
		instance={
			scale={ 0.800000 0.800000 }
			rotation=44
		}
	}
}

c_choiras = {
	pattern="pattern_horizontal_stripes_01.dds"
	color1=rgb { 43 155 161 }
	color2=white
	color3=black
	colored_emblem={
		color1=green
		texture="ce_block_03.dds"
		instance={
			position={ 0.500000 0.900000 }
			depth=3.010000
		}
	}

	colored_emblem={
		color1=blue
		texture="ce_block_03.dds"
		instance={
			position={ 0.500000 0.110000 }
			depth=2.010000
		}
	}

	colored_emblem={
		color1=rgb { 32 134 100 }
		texture="ce_waves_04.dds"
		instance={
			position={ 0.500000 0.720000 }
		}

		instance={
			position={ 0.500000 0.290000 }
			scale={ 1.000000 -1.000000 }
			depth=1.010000
		}
	}
}

c_mariso = {
	pattern="pattern_solid.dds"
	color1=green
	color2=white
	color3=blue
	colored_emblem={
		color1=white
		texture="ce_demaroile.dds"
		instance={
			position={ 1.000000 1.000000 }
			scale={ 0.200000 0.200000 }
		}

		instance={
			position={ 0.800000 1.000000 }
			scale={ 0.200000 0.200000 }
			depth=1.010000
		}

		instance={
			position={ 0.600000 1.000000 }
			scale={ 0.200000 0.200000 }
			depth=2.010000
		}

		instance={
			position={ 0.400000 1.000000 }
			scale={ 0.200000 0.200000 }
			depth=3.010000
		}

		instance={
			position={ 0.200000 1.000000 }
			scale={ 0.200000 0.200000 }
			depth=4.010000
		}

		instance={
			position={ 0.000000 1.000000 }
			scale={ 0.200000 0.200000 }
			depth=5.010000
		}

		instance={
			position={ 0.900000 0.800000 }
			scale={ 0.200000 0.200000 }
			depth=6.010000
		}

		instance={
			position={ 0.700000 0.800000 }
			scale={ 0.200000 0.200000 }
			depth=7.010000
		}

		instance={
			position={ 0.500000 0.800000 }
			scale={ 0.200000 0.200000 }
			depth=8.010000
		}

		instance={
			position={ 0.300000 0.800000 }
			scale={ 0.200000 0.200000 }
			depth=9.010000
		}

		instance={
			position={ 0.100000 0.800000 }
			scale={ 0.200000 0.200000 }
			depth=10.010000
		}

		instance={
			position={ 1.000000 0.600000 }
			scale={ 0.200000 0.200000 }
			depth=11.010000
		}

		instance={
			position={ 0.800000 0.600000 }
			scale={ 0.200000 0.200000 }
			depth=12.010000
		}

		instance={
			position={ 0.600000 0.600000 }
			scale={ 0.200000 0.200000 }
			depth=13.010000
		}

		instance={
			position={ 0.400000 0.600000 }
			scale={ 0.200000 0.200000 }
			depth=14.010000
		}

		instance={
			position={ 0.200000 0.600000 }
			scale={ 0.200000 0.200000 }
			depth=15.010000
		}

		instance={
			position={ 0.000000 0.600000 }
			scale={ 0.200000 0.200000 }
			depth=16.010000
		}

		instance={
			position={ 0.900000 0.400000 }
			scale={ 0.200000 0.200000 }
			depth=17.010000
		}

		instance={
			position={ 0.700000 0.400000 }
			scale={ 0.200000 0.200000 }
			depth=18.010000
		}

		instance={
			position={ 0.500000 0.400000 }
			scale={ 0.200000 0.200000 }
			depth=19.010000
		}

		instance={
			position={ 0.300000 0.400000 }
			scale={ 0.200000 0.200000 }
			depth=20.010000
		}

		instance={
			position={ 0.100000 0.400000 }
			scale={ 0.200000 0.200000 }
			depth=21.010000
		}

		instance={
			position={ 1.000000 0.200000 }
			scale={ 0.200000 0.200000 }
			depth=22.010000
		}

		instance={
			position={ 0.800000 0.200000 }
			scale={ 0.200000 0.200000 }
			depth=23.010000
		}

		instance={
			position={ 0.600000 0.200000 }
			scale={ 0.200000 0.200000 }
			depth=24.010000
		}

		instance={
			position={ 0.400000 0.200000 }
			scale={ 0.200000 0.200000 }
			depth=25.010000
		}

		instance={
			position={ 0.200000 0.200000 }
			scale={ 0.200000 0.200000 }
			depth=26.010000
		}

		instance={
			position={ 0.000000 0.200000 }
			scale={ 0.200000 0.200000 }
			depth=27.010000
		}

		instance={
			position={ 0.900000 0.000000 }
			scale={ 0.200000 0.200000 }
			depth=28.010000
		}

		instance={
			position={ 0.700000 0.000000 }
			scale={ 0.200000 0.200000 }
			depth=29.010000
		}

		instance={
			position={ 0.500000 0.000000 }
			scale={ 0.200000 0.200000 }
			depth=30.010000
		}

		instance={
			position={ 0.300000 0.000000 }
			scale={ 0.200000 0.200000 }
			depth=31.010000
		}

		instance={
			position={ 0.100000 0.000000 }
			scale={ 0.200000 0.200000 }
			depth=32.010002
		}

	}
}

c_trobour = {
	pattern="pattern_solid.dds"
	color1=rgb { 25 64 97 }
	color2=white
	color3=red
	colored_emblem={
		color1=grey
		texture="ce_tower.dds"
		instance={
			position={ 0.500000 0.670000 }
			scale={ 0.450000 -0.450000 }
		}

		instance={
			position={ 0.700000 0.300000 }
			scale={ 0.450000 0.450000 }
			depth=1.010000
			rotation=45
		}

		instance={
			position={ 0.300000 0.300000 }
			scale={ 0.450000 0.450000 }
			depth=2.010000
			rotation=314
		}
	}
}

c_vouxais = {
	pattern="pattern_solid.dds"
	color1=rgb { 32 114 87 }
	color2=white
	color3=red
	colored_emblem={
		color1=white
		color2=rgb { 32 114 87 }
		texture="ce_waves_03.dds"
		instance={
			position={ 0.500000 0.840000 }
		}

		instance={
			position={ 0.550000 0.210000 }
			depth=1.010000
		}

		instance={
			position={ 0.500000 0.000000 }
			depth=2.010000
		}

		instance={
			position={ 0.500000 1.000000 }
			depth=3.010000
		}

		instance={
			position={ 0.450000 0.640000 }
			depth=4.010000
		}

		instance={
			position={ 0.500000 0.330000 }
			depth=5.010000
		}
	}
}

d_oleisoite = {
	pattern="pattern_tricolor_bend_01.dds"
	color1=blue
	color2=yellow
	color3=blue
	colored_emblem={
		color1=blue
		texture="ce_bends_05.dds"
		instance={
			position={ 0.450000 0.510000 }
			depth=3.010000
		}

	}

	colored_emblem={
		color1=yellow
		color2=blue
		texture="ce_athyllarom.dds"
		instance={
			scale={ 0.760000 0.760000 }
		}
	}

	colored_emblem={
		color1=blue
		color2=blue
		texture="ce_african_frame_bg_15.dds"
		instance={
			depth=2.010000
		}
	}

	colored_emblem={
		color1=blue
		color2=yellow
		texture="ce_border_circle_fimbriated.dds"
		instance={
			scale={ 0.790000 0.790000 }
			depth=1.010000
		}
	}
}

c_keauxe = {
	pattern="pattern_solid.dds"
	color1=white
	color2=yellow
	color3=blue
	colored_emblem={
		color1=yellow
		color2=green
		texture="ce_swords_crossed.dds"
		instance={
			position={ 0.500000 0.540000 }
			scale={ 0.490000 0.490000 }
		}
	}

	colored_emblem={
		color1=green
		color2=yellow
		texture="ce_athyllarom.dds"
		instance={
			scale={ 0.730000 0.730000 }
			depth=1.010000
		}
	}
}

c_ereiaune = {
	pattern="temp_pattern_bendy_special.dds"
	color1=blue
	color2=grey
	color3=green
}

c_catolouce = {
	pattern="pattern_diagonal_split_02.dds"
	color1=yellow
	color2=blue_light
	color3=black
	colored_emblem={
		color1=red
		texture="ce_fret_01.dds"
		instance={
			scale={ 0.390000 0.390000 }
			depth=1.010000
		}
	}

	colored_emblem={
		color1=red
		color2=blue_light
		texture="ce_naxonos.dds"
		instance={
			scale={ 0.700000 0.700000 }
		}
	}
}

c_varois = {
	pattern="pattern__solid_designer.dds"
	color1=green
	color2=green
	color3=black
	colored_emblem={
		color1=red
		texture="ce_circle_mask.dds"
		instance={
			scale={ 0.560000 0.560000 }
			depth=2.010000
		}
	}

	colored_emblem={
		color1=white
		color2=red
		texture="ce_athyllarom.dds"
		instance={
			scale={ 0.700000 0.700000 }
		}
	}

	colored_emblem={
		color1=white
		texture="ce_circles_01.dds"
		instance={
			position={ 0.500000 0.510000 }
			scale={ 0.390000 0.390000 }
			depth=1.010000
		}
	}
}

d_mavouse = {
	pattern="pattern_waves_01.dds"
	color1=white
	color2=white
	color3=black
	colored_emblem={
		color1=white
		texture="ce_waves_04.dds"
		instance={
			position={ 0.500000 0.940000 }
			scale={ 1.000000 -1.000000 }
		}

		instance={
			position={ 0.500000 0.050000 }
			depth=1.010000
		}
	}

	colored_emblem={
		color1=blue_light
		texture="ce_border_circle.dds"
		instance={
			scale={ 0.790000 0.790000 }
			depth=3.010000
		}

		instance={
			scale={ 0.970000 0.970000 }
			depth=4.010000
		}

		instance={
			depth=5.010000
		}
	}

	colored_emblem={
		color1=rgb { 12 38 62 }
		color2=white
		texture="ce_demaroile.dds"
		instance={
			scale={ 0.670000 0.670000 }
			depth=2.010000
		}
	}
}


c_sotoise = {
	pattern="pattern_bend_01.dds"
	color1=rgb { 30 76 68 }
	color2=yellow
	color3=green
	colored_emblem={
		color1=rgb { 30 76 68 }
		texture="ce_demaroile.dds"
		instance={
			position={ 0.750000 0.750000 }
			scale={ 0.300000 0.300000 }
		}

		instance={
			scale={ 0.300000 0.300000 }
			depth=1.010000
		}

		instance={
			position={ 0.250000 0.250000 }
			scale={ 0.300000 0.300000 }
			depth=2.010000
		}
	}
}

c_potoite = {
	pattern="pattern_solid.dds"
	color1=rgb { 24 62 87 }
	color2=yellow
	color3=black
	colored_emblem={
		color1=white
		color2=rgb { 7 80 144 }
		texture="ce_column_banner.dds"
		instance={
			position={ 0.730000 0.500000 }
			scale={ 0.750000 0.750000 }
		}

		instance={
			scale={ 0.750000 0.750000 }
			depth=1.010000
		}

		instance={
			position={ 0.260000 0.500000 }
			scale={ 0.750000 0.750000 }
			depth=2.010000
		}
	}

	colored_emblem={
		color1=white
		color2=rgb { 7 80 144 }
		texture="ce_waves_03.dds"
		instance={
			position={ 0.500000 0.000000 }
			depth=3.010000
			rotation=135
		}
	}
}

c_taime = {
	pattern="pattern_tricolor_horizontal_01.dds"
	color1=rgb { 118 24 11 }
	color2=rgb { 88 139 157 }
	color3=rgb { 43 123 51 }
}

c_tessoe = {
	pattern="pattern_horizontal_stripes_01.dds"
	color1=green
	color2=black
	color3=red
}

c_vithia = {
	pattern="pattern_quarter.dds"
	color1=rgb { 28 89 78 }
	color2=white
	color3=blue
	colored_emblem={
		color1=rgb { 28 89 78 }
		texture="ce_demaroile.dds"
		instance={
			position={ 0.280000 0.250000 }
			scale={ 0.410000 0.410000 }
			depth=1.010000
		}
	}

	colored_emblem={
		color1=white
		color2=rgb { 28 89 78 }
		texture="ce_bends_04.dds"
		instance={
			position={ 0.990000 0.510000 }
		}
	}
}

d_tadours = {
	pattern="pattern_solid.dds"
	color1=white
	color2=yellow
	color3=red
	colored_emblem={
		color1=white
		texture="ce_spearhead.dds"
		instance={
			position={ 0.310000 0.460000 }
		}
	}

	colored_emblem={
		color1=white
		color2=rgb { 50 134 99 }
		texture="ce_checkers_diagonal_6x6.dds"
		instance={
			position={ 0.490000 0.490000 }
			depth=2.010000
		}
	}

	colored_emblem={
		color1=rgb { 50 134 99 }
		texture="ce_block_02.dds"
		instance={
			position={ 0.000000 0.500000 }
			depth=1.010000
		}
	}
}

c_putiloe = {
	pattern="pattern_solid.dds"
	color1=white
	color2=yellow
	color3=red
	colored_emblem={
		color1=white
		texture="ce_spearhead.dds"
		instance={
			position={ 0.310000 0.460000 }
			depth=1.010000
		}
	}

	colored_emblem={
		color1=rgb { 50 134 99 }
		texture="ce_block_02.dds"
		instance={
			position={ 0.000000 0.500000 }
			depth=2.010000
		}
	}

	colored_emblem={
		color1=rgb { 50 134 99 }
		texture="ce_spearhead.dds"
		instance={
			position={ 0.690000 0.500000 }
			scale={ 1.000000 -1.000000 }
		}
	}
}

c_avossor = {
	pattern="pattern_barry_06.dds"
	color1=green_light
	color2=white
	color3=blue
}

c_dourois = {
	pattern="pattern_horizontal_split_01.dds"
	color1=rgb { 178 178 178 }
	color2=green
	color3=red
	colored_emblem={
		color1=rgb { 47 131 103 }
		texture="ce_spearhead.dds"
		instance={
			position={ 0.500000 0.490000 }
			rotation=90
		}
	}
}

c_korales = {
	pattern="pattern_waves_01.dds"
	color1=rgb { 51 102 86 }
	color2=rgb { 54 90 123 }
	color3=red
}

d_voscierre = {
	pattern="pattern_checkers_02.dds"
	color1=rgb { 45 145 85 }
	color2=blue_light
	color3=blue_light
	colored_emblem={
		color1=white
		texture="ce_ordinary_cross_thinnest.dds"
		instance={
			depth=1.010000
		}
	}

	colored_emblem={
		color1=rgb { 45 145 85 }
		texture="ce_demaroile.dds"
		instance={
			scale={ 0.320000 0.320000 }
		}
	}

	colored_emblem={
		color1=white
		texture="ce_mena_diamond_napkin.dds"
		instance={
			scale={ 0.880000 0.880000 }
			depth=2.010000
		}
	}
}

c_carolle = {
	pattern="pattern_solid.dds"
	color1=rgb { 49 126 72 }
	color2=yellow
	color3=blue
	colored_emblem={
		color1=rgb { 42 93 47 }
		texture="ce_crown_small.dds"
		instance={
			position={ 0.500000 0.180000 }
			scale={ 0.320000 0.320000 }
		}
	}

	colored_emblem={
		color1=rgb { 42 93 47 }
		texture="ce_demaroile.dds"
		instance={
			position={ 0.500000 0.560000 }
			scale={ 0.610000 0.610000 }
			depth=1.010000
		}
	}

	colored_emblem={
		color1=white
		texture="ce_circle_mask.dds"
		instance={
			position={ 0.500000 0.560000 }
			scale={ 0.650000 0.650000 }
			depth=2.010000
		}
	}

	colored_emblem={
		color1=white
		texture="ce_mena_pale.dds"
		instance={
			position={ 0.500000 0.490000 }
			depth=3.010000
		}
	}
}

c_avarosie = {
	pattern="pattern_horizontal_split_02.dds"
	color1=green
	color2=white
	color3=red
	colored_emblem={
		color1=green
		texture="ce_demaroile.dds"
		instance={
			position={ 0.500000 0.290000 }
			scale={ 0.520000 0.520000 }
		}
	}

	colored_emblem={
		color1=white
		texture="ce_circle_mask.dds"
		instance={
			position={ 0.500000 0.290000 }
			scale={ 0.570000 0.570000 }
			depth=1.010000
		}
	}
}

c_veosci = {
	pattern="pattern_vertical_split_jagged_01.dds"
	color1=green
	color2=red
	color3=red
	colored_emblem={
		color1=yellow
		texture="ce_demaroile.dds"
		instance={
			scale={ 0.700000 0.700000 }
		}
	}
}

c_maguese = {
	pattern="pattern_horizontal_split_01.dds"
	color1=rgb { 21 114 79 }
	color2=rgb { 156 114 86 }
	color3=blue
	colored_emblem={
		color1=rgb { 21 114 79 }
		texture="ce_demaroile.dds"
		instance={
			position={ 0.500000 0.260000 }
			scale={ 0.280000 0.280000 }
		}
	}

	colored_emblem={
		color1=white
		texture="ce_circle_mask.dds"
		instance={
			position={ 0.500000 0.260000 }
			scale={ 0.330000 0.330000 }
			depth=1.010000
			rotation=90
		}
	}

	colored_emblem={
		color1=white
		color2=rgb { 21 114 79 }
		texture="ce_barry_undy.dds"
		instance={
			position={ 0.500000 0.960000 }
			depth=2.010000
		}
	}
}

c_voscinear = {
	pattern="pattern_checkers_12.dds"
	color1=rgb { 28 135 112 }
	color2=rgb { 43 104 160 }
	color3=blue
	colored_emblem={
		color1=white
		texture="ce_demaroile.dds"
		instance={
			position={ 0.500000 0.670000 }
			scale={ 0.350000 -0.350000 }
		}

		instance={
			position={ 0.690000 0.300000 }
			scale={ 0.350000 0.350000 }
			depth=1.010000
			rotation=45
		}

		instance={
			position={ 0.310000 0.300000 }
			scale={ 0.350000 0.350000 }
			depth=2.010000
		}
	}
}

c_vacoite = {
	pattern="pattern__solid_designer.dds"
	color1=white
	color2=green_light
	color3=red
	colored_emblem={
		color1=white
		texture="ce_demaroile.dds"
		instance={
			scale={ 0.470000 0.470000 }
		}
	}

	colored_emblem={
		color1=rgb { 21 114 79 }
		color2=rgb { 21 114 79 }
		texture="ce_diagonal_stripes_02_dual.dds"
		instance={
			depth=1.010000
		}
	}

	colored_emblem={
		color1=rgb { 21 114 79 }
		texture="ce_circle_mask.dds"
		instance={
			scale={ 0.560000 0.560000 }
			depth=2.010000
		}
	}
}

c_maciese = {
	pattern="pattern_horizontal_split_01.dds"
	color1=white
	color2=green
	color3=blue
	colored_emblem={
		color1=white
		texture="ce_demaroile.dds"
		instance={
			position={ 0.500000 0.260000 }
			scale={ 0.280000 0.280000 }
			depth=2.010000
		}
	}

	colored_emblem={
		color1=green
		texture="ce_demaroile.dds"
		instance={
			position={ 0.500000 0.710000 }
			scale={ 0.280000 0.280000 }
		}
	}

	colored_emblem={
		color1=green
		texture="ce_circle_mask.dds"
		instance={
			position={ 0.500000 0.260000 }
			scale={ 0.330000 0.330000 }
			depth=3.010000
			rotation=90
		}
	}

	colored_emblem={
		color1=white
		texture="ce_circle_mask.dds"
		instance={
			position={ 0.500000 0.710000 }
			scale={ 0.330000 0.330000 }
			depth=1.010000
		}
	}
}

c_pilacoe = {
	pattern="pattern_vertical_split_01.dds"
	color1=green
	color2=white
	color3=red
	colored_emblem={
		color1=green
		texture="ce_demaroile.dds"
		instance={
			scale={ 0.500000 0.500000 }
		}
	}

	colored_emblem={
		color1=white
		texture="ce_circle_mask.dds"
		instance={
			scale={ 0.590000 0.590000 }
			depth=1.010000
		}
	}
}

c_verate = {
	pattern="pattern_tricolor_horizontal_01.dds"
	color1=blue
	color2=white
	color3=blue
	colored_emblem={
		color1=white
		texture="ce_demaroile.dds"
		instance={
			position={ 0.500000 0.830000 }
			scale={ 0.220000 0.220000 }
		}

		instance={
			position={ 0.500000 0.170000 }
			scale={ 0.240000 0.240000 }
			depth=2.010000
		}
	}

	colored_emblem={
		color1=blue
		texture="ce_demaroile.dds"
		instance={
			scale={ 0.230000 0.230000 }
			depth=1.010000
		}
	}
}

d_sitolie = {
	pattern="pattern_waves_01.dds"
	color1=rgb { 29 99 123 }
	color2=rgb { 168 112 30 }
	color3=red
	colored_emblem={
		color1=white
		color2=rgb { 168 112 30 }
		color3=rgb { 168 112 30 }
		texture="ce_sabres.dds"
		instance={
			position={ 0.500000 0.530000 }
			scale={ 0.500000 0.500000 }
		}
	}

	colored_emblem={
		color1=rgb { 29 99 123 }
		texture="ce_circle_mask.dds"
		instance={
			scale={ 0.590000 0.590000 }
			depth=1.010000
		}
	}

	colored_emblem={
		color1=rgb { 168 112 30 }
		texture="ce_circle_mask.dds"
		instance={
			scale={ 0.700000 0.700000 }
			depth=2.010000
		}
	}
}

c_itroetes = {
	pattern="pattern_waves_01.dds"
	color1=blue_light
	color2=blue_light
	color3=red
	colored_emblem={
		color1=white
		color2=rgb { 168 112 30 }
		color3=rgb { 168 112 30 }
		texture="ce_sabres.dds"
		instance={
			position={ 0.500000 0.530000 }
			scale={ 0.660000 0.660000 }
		}
	}
}

c_cemeas = {
	pattern="pattern_solid.dds"
	color1=red
	color2=white
	color3=blue
	colored_emblem={
		color1=yellow
		texture="ce_crown_random.dds"
		instance={
			position={ 0.510000 0.510000 }
			scale={ 0.520000 0.520000 }
			rotation=319
		}
	}

	colored_emblem={
		color1=yellow
		color2=yellow
		texture="ce_sword_simple.dds"
		instance={
			depth=1.010000
			rotation=142
		}
	}
}

c_exerros = {
	pattern="pattern_shield_01.dds"
	color1=black
	color2=white
	color3=black
	colored_emblem={
		color1=black
		color2=white
		texture="ce_tower_and_wall.dds"
		instance={
			position={ 0.500000 0.480000 }
			scale={ 0.490000 0.490000 }
		}
	}

	colored_emblem={
		color1=blue
		color2=white
		texture="ce_border_shield_compony_invert.dds"
		instance={
			depth=1.010000
		}
	}
}

c_corrat = {
	pattern="pattern_tricolor_bend_02.dds"
	color1=red
	color2=white
	color3=red
}

c_comore = {
	pattern="pattern_solid.dds"
	color1=white
	color2=yellow
	color3=black
	colored_emblem={
		color1=white
		color2=rgb { 9 32 53 }
		texture="ce_african_pattern_02.dds"
		instance={
			position={ 0.500000 0.480000 }
		}
	}
}

d_noitire = {
	pattern="pattern__solid_designer.dds"
	color1=rgb { 29 45 60 }
	color2=rgb { 89 27 18 }
	color3=blue
	colored_emblem={
		color1=white
		color2=white
		texture="ce_sword_simple.dds"
		instance={
			scale={ 0.490000 -0.490000 }
		}
	}

	colored_emblem={
		color1=white
		texture="ce_naxonos.dds"
		instance={
			scale={ 0.750000 0.750000 }
			depth=1.010000
		}
	}
}

c_noitire = {
	pattern="pattern__solid_designer.dds"
	color1=rgb { 29 45 60 }
	color2=rgb { 89 27 18 }
	color3=blue
	colored_emblem={
		color1=white
		color2=white
		texture="ce_sword_simple.dds"
		instance={
			scale={ 0.490000 -0.490000 }
		}
	}

	colored_emblem={
		color1=white
		texture="ce_naxonos.dds"
		instance={
			scale={ 0.750000 0.750000 }
			depth=1.010000
		}
	}
}
c_katiloe = {
	pattern="pattern_solid.dds"
	color1=green_light
	color2=yellow
	color3=red
	colored_emblem={
		color1=green_light
		color2=red
		texture="ce_barruly_08.dds"
		instance={
			position={ 0.500000 1.000000 }
		}
	}

	colored_emblem={
		color1=orange
		color2=red
		texture="ce_tree.dds"
		instance={
			position={ 0.500000 0.260000 }
			scale={ 0.480000 0.480000 }
			depth=1.010000
		}
	}
}



c_asegois = {
	pattern="pattern_solid.dds"
	color1=white
	color2=white
	color3=red
	colored_emblem={
		color1=red
		texture="ce_tower.dds"
		instance={
			position={ 0.680000 0.700000 }
			scale={ 0.360000 0.360000 }
		}

		instance={
			position={ 0.320000 0.700000 }
			scale={ 0.360000 0.360000 }
			depth=1.010000
		}

		instance={
			position={ 0.680000 0.200000 }
			scale={ 0.360000 0.360000 }
			depth=2.010000
		}

		instance={
			position={ 0.500000 0.450000 }
			scale={ 0.360000 0.360000 }
			depth=3.010000
		}

		instance={
			position={ 0.320000 0.200000 }
			scale={ 0.360000 0.360000 }
			depth=4.010000
		}
	}
}

d_aitheaux = {
	pattern="pattern_solid.dds"
	color1=rgb { 10 26 21 }
	color2=yellow
	color3=black
	colored_emblem={
		color1=rgb { 86 127 116 }
		texture="ce_demaroile.dds"
		instance={
			scale={ 0.570000 0.570000 }
		}
	}

	colored_emblem={
		color1=white
		texture="ce_circle_mask.dds"
		instance={
			scale={ 0.600000 0.600000 }
			depth=1.010000
		}
	}

	colored_emblem={
		color1=white
		texture="ce_mena_pale.dds"
		instance={
			depth=2.010000
		}
	}
}


c_aithois = {
	pattern="pattern_horizontal_stripes_01.dds"
	color1=rgb { 84 134 122 }
	color2=white
	color3=red
	colored_emblem={
		color1=black
		texture="ce_barrulets_2.dds"
	}

	colored_emblem={
		color1=black
		texture="ce_demaroile.dds"
		instance={
			position={ 0.700000 0.500000 }
			scale={ -0.280000 0.280000 }
			depth=1.010000
		}

		instance={
			position={ 0.300000 0.500000 }
			scale={ 0.280000 0.280000 }
			depth=2.010000
		}
	}
}

c_casidigo = {
	pattern="pattern_tricolor_bend_01.dds"
	color1=red
	color2=yellow
	color3=white
	colored_emblem={
		color1=orange
		color2=yellow
		texture="ce_bend_potenty.dds"
	}
}

c_valteis = {
	pattern="pattern_vertical_stripes_01.dds"
	color1=rgb { 42 136 132 }
	color2=black
	color3=red
	colored_emblem={
		color1=black
		texture="ce_demaroile.dds"
		instance={
			scale={ 0.530000 0.530000 }
		}
	}

	colored_emblem={
		color1=white
		texture="ce_circle_mask.dds"
		instance={
			scale={ 0.590000 0.590000 }
			depth=1.010000
		}
	}
}

c_ducors = {
	pattern="pattern_vertical_split_01.dds"
	color1=white
	color2=rgb { 19 99 92 }
	color3=red
	colored_emblem={
		color1=white
		texture="ce_circle_mask.dds"
		instance={
			scale={ 0.590000 0.590000 }
			depth=1.010000
		}
	}

	colored_emblem={
		color1=rgb { 19 99 92 }
		texture="ce_demaroile.dds"
		instance={
			scale={ 0.500000 0.500000 }
		}
	}
}

c_soerale = {
	pattern="pattern_solid.dds"
	color1=white
	color2=red
	colored_emblem={
		color1=white
		texture="ce_circle_mask.dds"
		instance={
			scale={ 0.660000 0.660000 }
			depth=1.010000
		}
	}

	colored_emblem={
		color1=red
		color2=white
		texture="ce_per_fess.dds"
		instance={
			depth=2.010000
		}
	}

	colored_emblem={
		color1=red
		texture="ce_demaroile.dds"
		instance={
			scale={ 0.560000 0.560000 }
		}
	}
}

c_varotia = {
	pattern="pattern_horizontal_split_01.dds"
	color1=blue
	color2=green_light
	color3=black
	colored_emblem={
		color1=white
		color2=white
		texture="ce_diagonal_stripes_02_dual.dds"
		instance={
			position={ 0.500000 0.480000 }
			rotation=45
		}
	}
}


k_gelange = {
	pattern="pattern__solid_designer.dds"
	color1=white
	color2=yellow
	color3=red
	colored_emblem={
		color1=white
		color2=blue
		texture="ce_shield_01.dds"
		instance={
			position={ 0.500000 0.520000 }
			scale={ 0.690000 0.690000 }
			depth=2.010000
		}
	}

	colored_emblem={
		color1=blue
		color2=rgb { 72 117 159 }
		color3=white
		texture="ce_ager_shield_eagle.dds"
		instance={
			position={ 0.500000 0.520000 }
			scale={ 0.580000 0.580000 }
			depth=1.010000
		}
	}

	colored_emblem={
		color1=blue
		texture="ce_aigilcrofe.dds"
		instance={
			scale={ 0.170000 0.170000 }
		}
	}

	colored_emblem={
		color1=white
		color2=blue
		texture="ce_african_pattern_02.dds"
		instance={
			depth=3.010000
		}
	}
}

d_serchel = {
	pattern="pattern__solid_designer.dds"
	color1=grey
	color2=blue
	color3=blue
	colored_emblem={
		color1=white
		texture="ce_shield_01.dds"
		instance={
			position={ 0.500000 0.530000 }
			scale={ 0.690000 0.690000 }
			depth=2.010000
		}
	}

	colored_emblem={
		color1=blue
		texture="ce_double_tressure.dds"
		instance={
			position={ 0.500000 0.520000 }
			scale={ 0.840000 0.840000 }
			depth=1.010000
		}
	}

	colored_emblem={
		color1=blue
		texture="ce_aigilcrofe.dds"
		instance={
			scale={ 0.400000 0.400000 }
		}
	}
}


c_coerlange = {
	pattern="pattern_cross_01.dds"
	color1=blue
	color2=white
	color3=blue
	colored_emblem={
		color1=white
		texture="ce_inescutcheon.dds"
		instance={
			position={ 0.500000 0.520000 }
			scale={ 0.820000 0.820000 }
			depth=1.010000
		}
	}

	colored_emblem={
		color1=blue
		texture="ce_aigilcrofe.dds"
		instance={
			scale={ 0.390000 0.390000 }
		}
	}
}

c_aigiloe = {
	pattern="pattern_tricolor_bend_01.dds"
	color1=blue
	color2=blue_light
	color3=white
	colored_emblem={
		color1=blue
		color2=blue_light
		texture="ce_aigilcrofe_02.dds"
		instance={
			position={ 0.750000 0.740000 }
			scale={ 0.250000 0.250000 }
		}

		instance={
			position={ 0.500000 0.490000 }
			scale={ 0.250000 0.250000 }
			depth=1.010000
		}

		instance={
			position={ 0.250000 0.240000 }
			scale={ 0.300000 0.250000 }
			depth=2.010000
		}
	}

	colored_emblem={
		color1=white
		color2=blue_light
		texture="ce_bend_potenty.dds"
		instance={
			depth=3.010000
		}
	}
}

c_crofourde = {
	pattern="pattern_horizontal_split_01.dds"
	color1=blue
	color2=white
	color3=red
	colored_emblem={
		color1=white
		texture="ce_castle_random.dds"
		instance={
			position={ 0.500000 0.250000 }
			scale={ 0.500000 0.500000 }
			depth=1.010000
		}
	}

	colored_emblem={
		color1=blue
		texture="ce_aigilcrofe.dds"
		instance={
			position={ 0.500000 0.750000 }
			scale={ 0.500000 0.500000 }
		}
	}
}

c_curotole = {
	pattern="pattern_bend_01.dds"
	color1=white
	color2=blue_light
	color3=green
	colored_emblem={
		color1=white
		texture="ce_crown_random.dds"
		instance={
			position={ 0.750000 0.750000 }
			scale={ 0.300000 0.300000 }
		}

		instance={
			scale={ 0.300000 0.300000 }
			depth=1.010000
		}

		instance={
			position={ 0.250000 0.250000 }
			scale={ 0.300000 0.300000 }
			depth=2.010000
		}
	}
}

c_camtelier = {
	pattern="pattern_solid.dds"
	color1=blue
	color2=white
	color3=red
	colored_emblem={
		color1=white
		color2=white
		texture="ce_aigilcrofe.dds"
		instance={
			position={ 0.240000 0.500000 }
			scale={ 0.470000 0.470000 }
			depth=1.010000
		}
	}

	colored_emblem={
		color1=white
		texture="ce_chevron_in_chief.dds"
		instance={
			position={ 0.250000 0.490000 }
			rotation=90
		}
	}

	colored_emblem={
		color1=yellow
		color2=yellow
		texture="ce_african_pattern_08.dds"
		instance={
			position={ 0.000000 0.500000 }
			depth=2.010000
			rotation=44
		}
	}
}

c_sugarte = {
	pattern="pattern_horizontal_split_02.dds"
	color1=blue
	color2=white
	color3=blue
	colored_emblem={
		color1=white
		texture="ce_castle_random.dds"
		instance={
			position={ 0.500000 0.670000 }
			scale={ 0.700000 0.700000 }
			depth=1.010000
		}
	}

	colored_emblem={
		color1=blue
		texture="ce_label_03.dds"
		instance={
			position={ 0.500000 0.440000 }
		}
	}
}

c_espereuroes = {
	pattern="pattern_quarter.dds"
	color1=blue
	color2=white
	color3=blue
	colored_emblem={
		color1=white
		color2=blue
		texture="ce_athyllarom.dds"
		instance={
			scale={ 0.680000 0.680000 }
			depth=1.010000
		}
	}

	colored_emblem={
		color1=blue
		texture="ce_circle_mask.dds"
		instance={
			scale={ 0.720000 0.720000 }
			depth=2.010000
		}
	}

	colored_emblem={
		color1=white
		texture="ce_aigilcrofe.dds"
		instance={
			scale={ 0.460000 0.460000 }
		}
	}
}

d_vourde = {
	pattern="pattern_waves_01.dds"
	color1=blue
	color2=white
	color3=black
	colored_emblem={
		color1=white
		texture="ce_castle_random.dds"
		instance={
			position={ 0.500000 0.280000 }
			scale={ 0.540000 0.540000 }
		}
	}

	colored_emblem={
		color1=blue
		texture="ce_aigilcrofe.dds"
		instance={
			position={ 0.500000 0.730000 }
			scale={ 0.530000 0.530000 }
			depth=1.010000
		}
	}
}

c_aulgetaine = {
	pattern="pattern_solid.dds"
	color1=white
	color2=blue
	colored_emblem={
		color1=blue
		color2=white
		texture="ce_paly_undy.dds"
	}
}

c_vousiera = {
	pattern="pattern_solid.dds"
	color1=rgb { 37 82 125 }
	color2=yellow
	color3=blue
	colored_emblem={
		color1=white
		texture="ce_tower.dds"
		instance={
			position={ 0.500000 0.720000 }
			scale={ 0.333000 0.333000 }
		}

		instance={
			position={ 0.800000 0.350000 }
			scale={ 0.333000 0.333000 }
			depth=1.010000
		}

		instance={
			position={ 0.500000 0.350000 }
			scale={ 0.333000 0.333000 }
			depth=2.010000
		}

		instance={
			position={ 0.200000 0.350000 }
			scale={ 0.333000 0.333000 }
			depth=3.010000
		}
	}
}

c_cibouse = {
	pattern="pattern_solid.dds"
	color1=blue
	color2=yellow
	color3=blue
	colored_emblem={
		color1=white
		texture="ce_waves_04.dds"
		instance={
			position={ 0.500000 0.600000 }
			depth=1.010000
		}

		instance={
			position={ 0.500000 0.830000 }
			depth=2.010000
		}
	}

	colored_emblem={
		color1=white
		texture="ce_ager_eagle1.dds"
		instance={
			position={ 0.500000 0.270000 }
			scale={ 0.510000 0.510000 }
		}
	}
}

d_vroloire = {
	pattern="pattern_horizontal_split_02.dds"
	color1=rgb { 25 83 98 }
	color2=white
	color3=blue
	colored_emblem={
		color1=white
		texture="ce_wings.dds"
		instance={
			position={ 0.500000 0.630000 }
			scale={ 0.670000 0.670000 }
		}
	}
}

c_neus_vior = {
	pattern="pattern_horizontal_split_02.dds"
	color1=rgb { 25 83 98 }
	color2=white
	color3=blue
	colored_emblem={
		color1=white
		texture="ce_cinquefoil_01.dds"
		instance={
			position={ 0.500000 0.630000 }
			scale={ 0.670000 0.670000 }
			depth=1.010000
		}
	}

	colored_emblem={
		color1=rgb { 25 83 98 }
		texture="ce_label_05.dds"
		instance={
			position={ 0.500000 0.450000 }
		}
	}
}

c_aigivel = {
	pattern="pattern_solid.dds"
	color1=white
	color2=yellow
	color3=green
	colored_emblem={
		color1=white
		texture="ce_tower.dds"
		instance={
			position={ 0.500000 0.520000 }
			scale={ 0.590000 0.590000 }
			depth=1.010000
		}
	}

	colored_emblem={
		color1=white
		texture="ce_ager_eagle1.dds"
		instance={
			position={ 0.740000 0.500000 }
			scale={ -0.433000 0.433000 }
		}

		instance={
			position={ 0.260000 0.500000 }
			scale={ 0.433000 0.433000 }
			depth=2.010000
		}
	}

	colored_emblem={
		color1=blue
		texture="ce_block_01.dds"
		instance={
			depth=3.010000
		}
	}
}

c_pieria = {
	pattern="pattern_horizontal_stripes_01.dds"
	color1=blue
	color2=grey
	color3=blue
}

d_aigilourda = {
	pattern="pattern_checkers_02.dds"
	color1=rgb { 34 25 141 }
	color2=white
	color3=blue
	colored_emblem={
		color1=rgb { 34 25 141 }
		color3=yellow
		texture="ce_castle_random.dds"
		instance={
			position={ 0.750000 0.750000 }
			scale={ 0.500000 0.500000 }
			depth=2.010000
		}
	}

	colored_emblem={
		color1=white
		color2=yellow
		color3=yellow
		texture="ce_ager_eagle1.dds"
		instance={
			position={ 0.250000 0.750000 }
			scale={ 0.500000 0.500000 }
		}

		instance={
			position={ 0.750000 0.250000 }
			scale={ 0.500000 0.500000 }
			depth=1.010000
		}
	}

	colored_emblem={
		color1=rgb { 34 25 141 }
		texture="ce_castle_random.dds"
		instance={
			position={ 0.250000 0.250000 }
			scale={ 0.500000 0.500000 }
			depth=3.010000
		}
	}
}

c_cerloselle = {
	pattern="pattern_solid.dds"
	color1=blue
	color2=yellow
	color3=black
	colored_emblem={
		color1=white
		texture="ce_block_02.dds"
		instance={
			position={ 0.500000 0.000000 }
			scale={ 0.960000 0.960000 }
			depth=1.010000
			rotation=46
		}
	}

	colored_emblem={
		color1=green_light
		texture="ce_chevron_02_jagged.dds"
		instance={
			scale={ 1.000000 -1.000000 }
		}
	}
}

c_noireile = {
	pattern="pattern_waves_01.dds"
	color1=white
	color2=blue
	color3=blue
	colored_emblem={
		color1=black
		color2=white
		texture="ce_fish.dds"
		instance={
			scale={ 0.700000 0.700000 }
		}
	}
}

c_sutores = {
	pattern="pattern_vertical_stripes_02.dds"
	color1=blue
	color2=white
	color3=red
	colored_emblem={
		color1=blue
		texture="ce_waves_04.dds"
		instance={
			position={ 0.380000 0.500000 }
			rotation=269
		}

		instance={
			position={ 0.610000 0.510000 }
			depth=1.010000
			rotation=91
		}
	}
}

c_voutole = {
	pattern="pattern_tricolor_horizontal_01.dds"
	color1=rgb { 65 109 150 }
	color2=white
	color3=blue
}

c_patoira = {
	pattern="pattern_horizontal_split_01.dds"
	color1=blue
	color2=white
	color3=red
	colored_emblem={
		color1=blue
		color2=white
		texture="ce_portcullis.dds"
		instance={
			position={ 0.500000 0.730000 }
			scale={ 0.520000 0.520000 }
		}
	}
}

c_tesor = {
	pattern="pattern_solid.dds"
	color1=yellow
	color2=yellow
	colored_emblem={
		color1=yellow
		color2=blue
		texture="ce_stripes_horizontal_15.dds"
		instance={
			scale={ -1.000000 1.000000 }
		}
	}
}

d_teirone = {
	pattern="pattern_tricolor_horizontal_01.dds"
	color1=blue
	color2=yellow
	color3=blue
	colored_emblem={
		color1=white
		color2=yellow
		color3=blue
		texture="ce_crancelin.dds"
		instance={
			position={ 0.500000 0.270000 }
			scale={ -1.000000 1.000000 }
			depth=1.010000
			rotation=45
		}

		instance={
			position={ 0.500000 0.730000 }
			depth=2.010000
			rotation=135
		}
	}

	colored_emblem={
		color1=white
		texture="ce_block_03.dds"
		instance={
			scale={ 1.000000 0.900000 }
		}
	}
}

c_pieragile = {
	pattern="pattern_tricolor_horizontal_01.dds"
	color1=blue
	color2=blue
	color3=green
	colored_emblem={
		color1=grey
		texture="ce_tower.dds"
		instance={
			position={ 0.500000 0.440000 }
			scale={ 0.740000 0.740000 }
		}

	}

	colored_emblem={
		color1=black
		texture="ce_tower.dds"
		instance={
			position={ 0.500000 0.430000 }
			scale={ 0.800000 0.740000 }
			depth=1.010000
		}

	}

}

c_caulerete= {
	pattern="pattern__solid_designer.dds"
	color1=white
	color2=yellow
	color3=black
	colored_emblem={
		color1=rgb { 109 109 109 }
		color2=black
		texture="ce_castle.dds"
		instance={
			position={ 0.500000 0.560000 }
			scale={ 0.770000 0.770000 }
		}

	}

	colored_emblem={
		color1=green
		texture="ce_african_yoruba_snake.dds"
		instance={
			depth=1.010000
		}

		instance={
			scale={ -1.000000 1.000000 }
			depth=2.010000
		}

	}

}

c_choime = {
	pattern="pattern_horizontal_stripes_01.dds"
	color1=white
	color2=red
	color3=blue
	colored_emblem={
		color1=blue_light
		color2=blue
		texture="ce_lozenge.dds"
		instance={
			scale={ 0.700000 0.700000 }
		}

	}

}

c_bosouia = {
	pattern="pattern_waves_01.dds"
	color1=blue_light
	color2=green
	color3=blue
	colored_emblem={
		color1=yellow
		texture="ce_circle_mask.dds"
		instance={
			position={ 0.500000 0.200000 }
			scale={ 0.250000 0.250000 }
		}

	}

	colored_emblem={
		color1=rgb { 150 149 148 }
		texture="ce_fess_dancetty.dds"
		instance={
			position={ 0.500000 0.750000 }
			scale={ 1.000000 0.290000 }
			depth=2.010000
		}

	}

	colored_emblem={
		color1=rgb { 156 154 151 }
		texture="ce_fess_dancetty.dds"
		instance={
			position={ 0.500000 0.650000 }
			scale={ 1.000000 0.260000 }
			depth=3.010000
		}

	}

	colored_emblem={
		color1=rgb { 154 78 36 }
		texture="ce_fess_dancetty.dds"
		instance={
			position={ 0.500000 0.700000 }
			scale={ 1.000000 0.330000 }
			depth=1.010000
		}

	}

}

c_curouaul = {
	pattern="pattern_stepped_pyramid.dds"
	color1=blue_light
	color2=white
	color3=black
	colored_emblem={
		color1=rgb { 114 13 0 }
		texture="ce_pillar_liege.dds"
		instance={
			position={ 0.500000 0.470000 }
			scale={ 1.000000 0.830000 }
		}

		instance={
			position={ 0.620000 0.560000 }
			scale={ 0.500000 0.580000 }
			depth=1.010000
		}

		instance={
			position={ 0.380000 0.560000 }
			scale={ 0.500000 0.580000 }
			depth=2.010000
		}

		instance={
			position={ 0.290000 0.630000 }
			scale={ 0.340000 0.410000 }
			depth=3.010000
		}

		instance={
			position={ 0.710000 0.630000 }
			scale={ 0.340000 0.410000 }
			depth=4.010000
		}

	}

}

c_ceisetes = {
	pattern="pattern__solid_designer.dds"
	color1=rgb { 51 60 52 }
	color2=white
	color3=black
	colored_emblem={
		color1=rgb { 60 20 20 }
		color2=rgb { 192 192 192 }
		texture="ce_sword_simple.dds"
		instance={
			position={ 0.510000 0.260000 }
			scale={ 0.350000 0.300000 }
		}

		instance={
			position={ 0.620000 0.290000 }
			scale={ 0.350000 0.300000 }
			depth=1.010000
			rotation=36
		}

		instance={
			position={ 0.690000 0.380000 }
			scale={ 0.350000 0.300000 }
			depth=2.010000
			rotation=72
		}

		instance={
			position={ 0.690000 0.490000 }
			scale={ 0.350000 0.300000 }
			depth=3.010000
			rotation=108
		}

		instance={
			position={ 0.620000 0.580000 }
			scale={ 0.350000 0.300000 }
			depth=4.010000
			rotation=144
		}

		instance={
			position={ 0.510000 0.610000 }
			scale={ 0.350000 0.300000 }
			depth=5.010000
			rotation=180
		}

		instance={
			position={ 0.390000 0.580000 }
			scale={ 0.350000 0.300000 }
			depth=6.010000
			rotation=216
		}

		instance={
			position={ 0.320000 0.490000 }
			scale={ 0.350000 0.300000 }
			depth=7.010000
			rotation=252
		}

		instance={
			position={ 0.320000 0.380000 }
			scale={ 0.350000 0.300000 }
			depth=8.010000
			rotation=288
		}

		instance={
			position={ 0.390000 0.290000 }
			scale={ 0.350000 0.300000 }
			depth=9.010000
			rotation=324
		}

	}

}

c_cipioran = {
	pattern="pattern_horizontal_split_02.dds"
	color1=blue
	color2=blue_light
	color3=blue
	colored_emblem={
		color1=yellow
		texture="ce_ship_mast.dds"
		instance={
			position={ 0.700000 0.860000 }
			scale={ 0.200000 0.200000 }
		}

		instance={
			position={ 0.500000 0.860000 }
			scale={ 0.200000 0.200000 }
			depth=1.010000
		}

		instance={
			position={ 0.300000 0.860000 }
			scale={ 0.200000 0.200000 }
			depth=2.010000
		}

		instance={
			position={ 1.000000 0.660000 }
			scale={ 0.200000 0.200000 }
			depth=3.010000
		}

		instance={
			position={ 0.800000 0.660000 }
			scale={ 0.200000 0.200000 }
			depth=4.010000
		}

		instance={
			position={ 0.600000 0.660000 }
			scale={ 0.200000 0.200000 }
			depth=5.010000
		}

		instance={
			position={ 0.400000 0.660000 }
			scale={ 0.200000 0.200000 }
			depth=6.010000
		}

		instance={
			position={ 0.200000 0.660000 }
			scale={ 0.200000 0.200000 }
			depth=7.010000
		}

		instance={
			position={ 0.000000 0.660000 }
			scale={ 0.200000 0.200000 }
			depth=8.010000
		}

		instance={
			position={ 0.900000 0.460000 }
			scale={ 0.200000 0.200000 }
			depth=9.010000
		}

		instance={
			position={ 0.700000 0.460000 }
			scale={ 0.200000 0.200000 }
			depth=10.010000
		}

		instance={
			position={ 0.500000 0.460000 }
			scale={ 0.200000 0.200000 }
			depth=11.010000
		}

		instance={
			position={ 0.300000 0.460000 }
			scale={ 0.200000 0.200000 }
			depth=12.010000
		}

		instance={
			position={ 0.100000 0.460000 }
			scale={ 0.200000 0.200000 }
			depth=13.010000
		}

		instance={
			position={ 1.000000 0.260000 }
			scale={ 0.200000 0.200000 }
			depth=14.010000
		}

		instance={
			position={ 0.800000 0.260000 }
			scale={ 0.200000 0.200000 }
			depth=15.010000
		}

		instance={
			position={ 0.600000 0.260000 }
			scale={ 0.200000 0.200000 }
			depth=16.010000
		}

		instance={
			position={ 0.400000 0.260000 }
			scale={ 0.200000 0.200000 }
			depth=17.010000
		}

		instance={
			position={ 0.200000 0.260000 }
			scale={ 0.200000 0.200000 }
			depth=18.010000
		}

		instance={
			position={ 0.000000 0.260000 }
			scale={ 0.200000 0.200000 }
			depth=19.010000
		}

	}

}

d_meiveouia = {
	pattern="pattern__solid_designer.dds"
	color1=rgb { 0 51 98 }
	color2=white
	color3=green
	colored_emblem={
		color1=rgb { 119 119 119 }
		color2=white
		texture="ce_rune_futhark_ur.dds"
		instance={
			position={ 0.320000 0.170000 }
			depth=5.010000
			rotation=180
		}

	}

	colored_emblem={
		color1=black
		texture="ce_circle_mask.dds"
		instance={
			position={ 0.500000 0.490000 }
			scale={ 0.360000 0.360000 }
			depth=1.010000
		}

	}

	colored_emblem={
		color1=rgb { 119 119 119 }
		texture="ce_bendlet.dds"
		instance={
			position={ 0.500000 0.470000 }
			scale={ 1.000000 -1.000000 }
			depth=4.010000
		}

	}

	colored_emblem={
		color1=rgb { 119 119 119 }
		texture="ce_bendlet.dds"
		instance={
			depth=3.010000
			rotation=45
		}

	}

	colored_emblem={
		color1=rgb { 119 119 119 }
		texture="ce_african_mpuannum.dds"
		instance={
			position={ 0.500000 0.490000 }
			scale={ 0.420000 0.420000 }
			rotation=46
		}

	}

	colored_emblem={
		color1=rgb { 119 119 119 }
		texture="ce_bendlet.dds"
		instance={
			position={ 1.000000 0.500000 }
			scale={ 0.820000 1.000000 }
			depth=2.010000
			rotation=135
		}

	}

}


c_tes_mirsoen = {
	pattern="pattern_solid.dds"
	color1=rgb { 75 40 20 }
	color2=yellow
	color3=red
	colored_emblem={
		color1=rgb { 164 119 53 }
		color2=rgb { 209 153 70 }
		color3=brown
		texture="ce_basket.dds"
		instance={
			position={ 0.500000 0.450000 }
			scale={ 0.420000 0.420000 }
		}

	}

	colored_emblem={
		color1=rgb { 121 121 121 }
		texture="ce_block_02.dds"
		instance={
			position={ 0.500000 0.450000 }
			scale={ 0.500000 0.500000 }
			depth=1.010000
			rotation=45
		}

	}

	colored_emblem={
		color1=rgb { 129 124 124 }
		color2=green_light
		texture="ce_pagan_saltire_cross_02.dds"
		instance={
			position={ 0.500000 0.460000 }
			depth=2.010000
		}

	}

}

c_jehansaive={
	pattern="pattern__solid_designer.dds"
	color1=green
	color2=blue_light
	color3=blue
	colored_emblem={
		color1=rgb { 64 131 70 }
		texture="ce_circle_mask.dds"
		instance={
			scale={ 0.520000 0.520000 }
			depth=8.010000
		}

	}

	colored_emblem={
		color1=rgb { 90 42 16 }
		color2=rgb { 46 171 58 }
		texture="ce_tree.dds"
		instance={
			position={ 0.680000 0.900000 }
			scale={ 0.400000 0.400000 }
			rotation=30
		}

		instance={
			position={ 0.300000 0.900000 }
			scale={ 0.400000 0.400000 }
			depth=1.010000
		}

		instance={
			position={ 0.900000 0.500000 }
			scale={ 0.400000 0.400000 }
			depth=2.010000
		}

		instance={
			position={ 0.100000 0.500000 }
			scale={ 0.400000 0.400000 }
			depth=5.010000
		}

		instance={
			position={ 0.700000 0.100000 }
			scale={ 0.400000 0.400000 }
			depth=6.010000
		}

		instance={
			position={ 0.300000 0.100000 }
			scale={ 0.400000 0.400000 }
			depth=7.010000
		}

	}

	colored_emblem={
		color1=white
		color2=brown
		texture="ce_axe_long.dds"
		instance={
			scale={ -0.420000 0.420000 }
			depth=3.010000
			rotation=32
		}

		instance={
			scale={ 0.420000 0.420000 }
			depth=4.010000
			rotation=325
		}

	}

}

c_verlalonga = {
	pattern="pattern__solid_designer.dds"
	color1=green
	color2=white
	color3=black
	colored_emblem={
		color1=grey
		texture="ce_bend_engrailed.dds"
		instance={
			position={ 0.920000 0.000000 }
			scale={ 0.940000 -0.850000 }
			depth=3.010000
		}

		instance={
			position={ 0.080000 0.000000 }
			scale={ 0.940000 0.850000 }
			depth=4.010000
		}

		instance={
			position={ 0.500000 0.870000 }
			scale={ 0.940000 0.840000 }
			depth=5.010000
			rotation=45
		}

	}

	colored_emblem={
		color1=rgb { 61 12 2 }
		texture="ce_bend_engrailed.dds"
		instance={
			position={ 0.800000 0.100000 }
			scale={ 0.690000 -0.690000 }
		}

		instance={
			position={ 0.200000 0.100000 }
			scale={ 0.690000 0.690000 }
			depth=1.010000
		}

		instance={
			position={ 0.500000 0.770000 }
			scale={ 0.690000 0.690000 }
			depth=2.010000
			rotation=45
		}

	}

}

c_sutuvon ={
	pattern="pattern_diagonal_split_01.dds"
	color1=green
	color2=purple
	color3=red
	colored_emblem={
		color1=green_light
		color2=rgb { 31 96 158 }
		texture="ce_grape.dds"
		instance={
			position={ 0.650000 0.660000 }
			scale={ 0.430000 0.430000 }
		}

	}

	colored_emblem={
		color1=purple
		color2=green
		texture="ce_per_bend.dds"
		instance={
			position={ 0.430000 0.500000 }
			scale={ 1.000000 -1.000000 }
			depth=1.010000
		}

	}

}

c_noruvon = {
	pattern="pattern_diagonal_split_01.dds"
	color1=purple
	color2=green
	color3=red
	colored_emblem={
		color1=green
		color2=rgb { 31 96 158 }
		texture="ce_grape.dds"
		instance={
			position={ 0.350000 0.290000 }
			scale={ 0.430000 0.430000 }
		}

	}

}

c_contirel = {
	pattern="pattern_horizontal_split_01.dds"
	color1=blue_light
	color2=yellow
	color3=blue
	colored_emblem={
		color1=yellow
		texture="ce_waves_04.dds"
		instance={
			position={ 0.460000 0.550000 }
			scale={ -1.000000 1.000000 }
			depth=5.010000
		}

	}

	colored_emblem={
		color1=yellow
		texture="ce_triskel.dds"
		instance={
			position={ 0.950000 0.520000 }
			scale={ -0.560000 0.560000 }
		}

		instance={
			position={ 0.550000 0.520000 }
			scale={ -0.560000 0.560000 }
			depth=1.010000
		}

		instance={
			position={ 0.350000 0.520000 }
			scale={ -0.560000 0.560000 }
			depth=2.010000
		}

		instance={
			position={ 0.150000 0.520000 }
			scale={ -0.560000 0.560000 }
			depth=3.010000
		}

		instance={
			position={ 0.750000 0.520000 }
			scale={ -0.560000 0.560000 }
			depth=4.010000
		}

	}

}